transcript
# Reading pref.tcl
pwd
# C:/Users/lando/OneDrive/Documents/GitHub/TCES_330_16_bit_processor
cd ./PhaseIV
# reading modelsim.ini
cd ..
# reading C:/intelFPGA/20.1/modelsim_ase/win32aloem/../modelsim.ini
cd ./PhaseV
# reading modelsim.ini
do runrtlFSM.do
# 
# Get rid of current work lib
# if {[file exists rtl_work]} {
# 	vdel -lib rtl_work -all
# }
# 
# Create work library and map it to 'work'
# vlib rtl_work
# vmap work rtl_work
# Model Technology ModelSim - Intel FPGA Edition vmap 2020.1 Lib Mapping Utility 2020.02 Feb 28 2020
# vmap work rtl_work 
# Modifying modelsim.ini
# 
# Compile Verilog
#     All Verilog files that are part of this design should have
#     their own "vlog" line below.
# vlog -work work +acc +cover "./FSM.sv"
# Model Technology ModelSim - Intel FPGA Edition vlog 2020.1 Compiler 2020.02 Feb 28 2020
# Start time: 11:20:34 on Jun 10,2026
# vlog -reportprogress 300 -work work "+acc" "+cover" ./FSM.sv 
# -- Compiling package FSM_sv_unit
# -- Compiling module FSM
# ** Note: (vlog-143) Recognized 1 FSM in module "FSM(verilog)".
# -- Compiling module FSM_tb
# 
# Top level modules:
# 	FSM_tb
# End time: 11:20:35 on Jun 10,2026, Elapsed time: 0:00:01
# Errors: 0, Warnings: 0
# 
# Call vsim to invoke simulator
#     Make sure the last item on the line is the name of the
#     testbench module you want to execute.
# vsim -t 1ps -L altera_ver -L lpm_ver -L sgate_ver -L altera_mf_ver -L altera_lnsim_ver -L cycloneive_ver -L rtl_work -L work -voptargs="+acc" -fsmdebug  FSM_tb
# vsim -t 1ps -L altera_ver -L lpm_ver -L sgate_ver -L altera_mf_ver -L altera_lnsim_ver -L cycloneive_ver -L rtl_work -L work -voptargs=""+acc"" -fsmdebug FSM_tb 
# Start time: 11:20:35 on Jun 10,2026
# Loading sv_std.std
# Loading work.FSM_sv_unit
# Loading work.FSM_tb
# Loading work.FSM
# WARNING: No extended dataflow license exists
# 
# Source the wave do file
#     This should be the file that sets up the signal window for
#     the module you are testing.
# do FSMWave.do
# onerror {resume}
# quietly WaveActivateNextPane {} 0
# add wave -noupdate /FSM_tb/Clk
# ** Warning: (vsim-WLF-5000) WLF file currently in use: vsim.wlf
#           File in use by: lando  Hostname: LANDONSLAPTOP  ProcessID: 29424
#           Attempting to use alternate WLF file "./wlftib9zjs".
# ** Warning: (vsim-WLF-5001) Could not open WLF file: vsim.wlf
#           Using alternate file: ./wlftib9zjs
# add wave -noupdate /FSM_tb/ResetN
# add wave -noupdate -hex /FSM_tb/Instruction
# add wave -noupdate /FSM_tb/PC_clr
# add wave -noupdate /FSM_tb/PC_up
# add wave -noupdate /FSM_tb/IR_ld
# add wave -noupdate -hex /FSM_tb/D_addr
# add wave -noupdate /FSM_tb/D_wr
# add wave -noupdate /FSM_tb/RF_s
# add wave -noupdate -hex /FSM_tb/RF_Ra_Addr
# add wave -noupdate -hex /FSM_tb/RF_Rb_Addr
# add wave -noupdate /FSM_tb/RF_W_en
# add wave -noupdate -hex /FSM_tb/RF_W_Addr
# ** UI-Msg: (vish-4014) No objects found matching '/FSM_tb/RF_W_Addr'.
# Executing ONERROR command at macro ./FSMWave.do line 15
# add wave -noupdate -hex /FSM_tb/ALU_s0
# add wave -noupdate -hex /FSM_tb/CurrentState
# add wave -noupdate -hex /FSM_tb/NextState
# TreeUpdate [SetDefaultTree]
# WaveRestoreCursors {{Cursor 1} {0 ps} 0}
# quietly wave cursor active 0
# configure wave -namecolwidth 150
# configure wave -valuecolwidth 100
# configure wave -justifyvalue left
# configure wave -signalnamewidth 0
# configure wave -snapdistance 10
# configure wave -datasetprefix 0
# configure wave -rowmargin 4
# configure wave -childrowmargin 2
# configure wave -gridoffset 0
# configure wave -gridperiod 1
# configure wave -griddelta 40
# configure wave -timeline 0
# configure wave -timelineunits ps
# update
# WaveRestoreZoom {0 ps} {1 ns}
# 
# Set the window types
# view wave
# .main_pane.wave.interior.cs.body.pw.wf
# view structure
# .main_pane.structure.interior.cs.body.struct
# view signals
# .main_pane.objects.interior.cs.body.tree
# 
# Run the simulation
# run -all
# Time	Clk	ResetN	Inst	PC_clr	PC_up	IR_ld	D_addr	D_wr	RF_s	RF_Ra_Addr	RF_Rb_Addr	RF_W_en	RF_W_addr	ALU_s0
#     0	x	0	xxxx	0	0	0	00	0	0	0	0	0	0	000
#    10	0	1	xxxx	0	0	0	00	0	0	0	0	0	0	000
#    20	1	1	xxxx	1	0	0	00	0	0	0	0	0	0	000
#    30	0	1	0000	1	0	0	00	0	0	0	0	0	0	000
#    40	1	1	0000	0	1	1	00	0	0	0	0	0	0	000
#    50	0	1	0000	0	1	1	00	0	0	0	0	0	0	000
#    60	1	1	0000	0	0	0	00	0	0	0	0	0	0	000
#    70	0	0	0000	0	0	0	00	0	0	0	0	0	0	000
#    80	1	0	0000	1	0	0	00	0	0	0	0	0	0	000
#    90	0	1	0000	1	0	0	00	0	0	0	0	0	0	000
#   100	1	1	0000	0	1	1	00	0	0	0	0	0	0	000
#   110	0	1	1ba1	0	1	1	00	0	0	0	0	0	0	000
#   120	1	1	1ba1	0	0	0	00	0	0	0	0	0	0	000
#   130	0	1	1ba1	0	0	0	00	0	0	0	0	0	0	000
#   140	1	1	1ba1	0	0	0	a1	1	0	b	0	0	0	000
#   150	0	1	1ba1	0	0	0	a1	1	0	b	0	0	0	000
#   160	1	1	1ba1	0	1	1	00	0	0	0	0	0	0	000
#   170	0	0	1ba1	0	1	1	00	0	0	0	0	0	0	000
#   180	1	0	1ba1	1	0	0	00	0	0	0	0	0	0	000
#   190	0	1	1ba1	1	0	0	00	0	0	0	0	0	0	000
#   200	1	1	1ba1	0	1	1	00	0	0	0	0	0	0	000
#   210	0	1	2cd3	0	1	1	00	0	0	0	0	0	0	000
#   220	1	1	2cd3	0	0	0	00	0	0	0	0	0	0	000
#   230	0	1	2cd3	0	0	0	00	0	0	0	0	0	0	000
#   240	1	1	2cd3	0	0	0	cd	0	1	0	0	0	3	000
#   250	0	1	2cd3	0	0	0	cd	0	1	0	0	0	3	000
#   260	1	1	2cd3	0	0	0	cd	0	1	0	0	1	3	000
#   270	0	1	2cd3	0	0	0	cd	0	1	0	0	1	3	000
#   280	1	1	2cd3	0	1	1	00	0	0	0	0	0	0	000
#   290	0	0	2cd3	0	1	1	00	0	0	0	0	0	0	000
#   300	1	0	2cd3	1	0	0	00	0	0	0	0	0	0	000
#   310	0	1	2cd3	1	0	0	00	0	0	0	0	0	0	000
#   320	1	1	2cd3	0	1	1	00	0	0	0	0	0	0	000
#   330	0	1	3f13	0	1	1	00	0	0	0	0	0	0	000
#   340	1	1	3f13	0	0	0	00	0	0	0	0	0	0	000
#   350	0	1	3f13	0	0	0	00	0	0	0	0	0	0	000
#   360	1	1	3f13	0	0	0	00	0	0	f	1	1	3	001
#   370	0	1	3f13	0	0	0	00	0	0	f	1	1	3	001
#   380	1	1	3f13	0	1	1	00	0	0	0	0	0	0	000
#   390	0	0	3f13	0	1	1	00	0	0	0	0	0	0	000
#   400	1	0	3f13	1	0	0	00	0	0	0	0	0	0	000
#   410	0	1	3f13	1	0	0	00	0	0	0	0	0	0	000
#   420	1	1	3f13	0	1	1	00	0	0	0	0	0	0	000
#   430	0	1	4e32	0	1	1	00	0	0	0	0	0	0	000
#   440	1	1	4e32	0	0	0	00	0	0	0	0	0	0	000
#   450	0	1	4e32	0	0	0	00	0	0	0	0	0	0	000
#   460	1	1	4e32	0	0	0	00	0	0	e	3	1	2	010
#   470	0	1	4e32	0	0	0	00	0	0	e	3	1	2	010
#   480	1	1	4e32	0	1	1	00	0	0	0	0	0	0	000
#   490	0	1	5eff	0	1	1	00	0	0	0	0	0	0	000
#   500	1	1	5eff	0	0	0	00	0	0	0	0	0	0	000
#   510	0	1	5eff	0	0	0	00	0	0	0	0	0	0	000
#   520	1	1	5eff	0	0	0	00	0	0	0	0	0	0	000
#   530	0	1	5eff	0	0	0	00	0	0	0	0	0	0	000
#   540	1	1	5eff	0	0	0	00	0	0	0	0	0	0	000
#   550	0	1	5eff	0	0	0	00	0	0	0	0	0	0	000
#   560	1	1	5eff	0	0	0	00	0	0	0	0	0	0	000
#   570	0	1	5eff	0	0	0	00	0	0	0	0	0	0	000
#   580	1	1	5eff	0	0	0	00	0	0	0	0	0	0	000
#   590	0	1	5eff	0	0	0	00	0	0	0	0	0	0	000
#   600	1	1	5eff	0	0	0	00	0	0	0	0	0	0	000
#   610	0	1	5eff	0	0	0	00	0	0	0	0	0	0	000
#   620	1	1	5eff	0	0	0	00	0	0	0	0	0	0	000
#   630	0	1	5eff	0	0	0	00	0	0	0	0	0	0	000
#   640	1	1	5eff	0	0	0	00	0	0	0	0	0	0	000
# ** Note: $stop    : ./FSM.sv(412)
#    Time: 650 ps  Iteration: 1  Instance: /FSM_tb
# Break in Module FSM_tb at ./FSM.sv line 412
# 
# View the entire wave display
# wave zoomfull
# 0 ps
# 683 ps
# 
# End
cd ..
# Cannot change directory while a simulation is in progress.
# Use the "quit -sim" command to unload the design first.
quit -sim
# End time: 12:14:13 on Jun 10,2026, Elapsed time: 0:53:38
# Errors: 0, Warnings: 2
cd ..
# reading C:/intelFPGA/20.1/modelsim_ase/win32aloem/../modelsim.ini
cd ./PhaseIV
# reading modelsim.ini
do Datapathrtl.do
# 
# Get rid of current work lib
# if {[file exists rtl_work]} {
# 	vdel -lib rtl_work -all
# }
# 
# Create work library and map it to 'work'
# vlib rtl_work
# vmap work rtl_work
# Model Technology ModelSim - Intel FPGA Edition vmap 2020.1 Lib Mapping Utility 2020.02 Feb 28 2020
# vmap work rtl_work 
# Modifying modelsim.ini
# 
# Compile Verilog
#     All Verilog files that are part of this design should have
#     their own "vlog" line below.
# vlog -work work +acc "./DataMemory.v"
# Model Technology ModelSim - Intel FPGA Edition vlog 2020.1 Compiler 2020.02 Feb 28 2020
# Start time: 12:14:24 on Jun 10,2026
# vlog -reportprogress 300 -work work "+acc" ./DataMemory.v 
# -- Compiling module DataMemory
# 
# Top level modules:
# 	DataMemory
# End time: 12:14:24 on Jun 10,2026, Elapsed time: 0:00:00
# Errors: 0, Warnings: 0
# vlog -work work +acc "./Mux.sv"
# Model Technology ModelSim - Intel FPGA Edition vlog 2020.1 Compiler 2020.02 Feb 28 2020
# Start time: 12:14:24 on Jun 10,2026
# vlog -reportprogress 300 -work work "+acc" ./Mux.sv 
# -- Compiling module Mux
# -- Compiling package Mux_sv_unit
# -- Compiling module Mux_tb
# 
# Top level modules:
# 	Mux_tb
# End time: 12:14:24 on Jun 10,2026, Elapsed time: 0:00:00
# Errors: 0, Warnings: 0
# vlog -work work +acc "./ALU.sv"
# Model Technology ModelSim - Intel FPGA Edition vlog 2020.1 Compiler 2020.02 Feb 28 2020
# Start time: 12:14:24 on Jun 10,2026
# vlog -reportprogress 300 -work work "+acc" ./ALU.sv 
# -- Compiling module ALU
# -- Compiling module ALU_tb
# 
# Top level modules:
# 	ALU_tb
# End time: 12:14:24 on Jun 10,2026, Elapsed time: 0:00:00
# Errors: 0, Warnings: 0
# vlog -work work +acc "./regfile16x16.sv"
# Model Technology ModelSim - Intel FPGA Edition vlog 2020.1 Compiler 2020.02 Feb 28 2020
# Start time: 12:14:24 on Jun 10,2026
# vlog -reportprogress 300 -work work "+acc" ./regfile16x16.sv 
# -- Compiling module regfile16x16
# -- Compiling module regfile16x16_tb
# 
# Top level modules:
# 	regfile16x16_tb
# End time: 12:14:24 on Jun 10,2026, Elapsed time: 0:00:00
# Errors: 0, Warnings: 0
# vlog -work work +acc "./Datapath.sv"
# Model Technology ModelSim - Intel FPGA Edition vlog 2020.1 Compiler 2020.02 Feb 28 2020
# Start time: 12:14:24 on Jun 10,2026
# vlog -reportprogress 300 -work work "+acc" ./Datapath.sv 
# -- Compiling module Datapath
# -- Compiling module Datapath_tb
# 
# Top level modules:
# 	Datapath_tb
# End time: 12:14:24 on Jun 10,2026, Elapsed time: 0:00:00
# Errors: 0, Warnings: 0
# 
# Call vsim to invoke simulator
#     Make sure the last item on the line is the name of the
#     testbench module you want to execute.
# vsim -t 1ps -L altera_ver -L lpm_ver -L sgate_ver -L altera_mf_ver -L altera_lnsim_ver -L cycloneive_ver -L rtl_work -L work -voptargs="+acc" -fsmdebug  Datapath_tb
# vsim -t 1ps -L altera_ver -L lpm_ver -L sgate_ver -L altera_mf_ver -L altera_lnsim_ver -L cycloneive_ver -L rtl_work -L work -voptargs=""+acc"" -fsmdebug Datapath_tb 
# Start time: 12:14:24 on Jun 10,2026
# Loading sv_std.std
# Loading work.Datapath_tb
# Loading work.Datapath
# Loading work.DataMemory
# Loading altera_mf_ver.altsyncram
# Loading work.Mux
# Loading work.ALU
# Loading work.regfile16x16
# Loading altera_mf_ver.altsyncram_body
# Loading altera_mf_ver.ALTERA_DEVICE_FAMILIES
# Loading altera_mf_ver.ALTERA_MF_MEMORY_INITIALIZATION
# WARNING: No extended dataflow license exists
# 
# Source the wave do file
#     This should be the file that sets up the signal window for
#     the module you are testing.
# do DatapathWave.do
# onerror {resume}
# quietly WaveActivateNextPane {} 0
# add wave -noupdate /Datapath_tb/Clk
# add wave -noupdate -hex /Datapath_tb/D_addr
# add wave -noupdate /Datapath_tb/D_wr
# add wave -noupdate /Datapath_tb/RF_s
# add wave -noupdate -hex /Datapath_tb/RF_W_addr
# add wave -noupdate /Datapath_tb/RF_W_en
# add wave -noupdate -hex /Datapath_tb/RF_Ra_Addr
# add wave -noupdate -hex /Datapath_tb/RF_Rb_Addr
# add wave -noupdate -decimal /Datapath_tb/ALU_s0
# add wave -noupdate -hex /Datapath_tb/ALU_inA
# add wave -noupdate -hex /Datapath_tb/ALU_inB
# add wave -noupdate -hex /Datapath_tb/ALU_out
# 
# TreeUpdate [SetDefaultTree]
# WaveRestoreCursors {{Cursor 1} {0 ps} 0}
# quietly wave cursor active 0
# configure wave -namecolwidth 150
# configure wave -valuecolwidth 100
# configure wave -justifyvalue left
# configure wave -signalnamewidth 0
# configure wave -snapdistance 10
# configure wave -datasetprefix 0
# configure wave -rowmargin 4
# configure wave -childrowmargin 2
# configure wave -gridoffset 0
# configure wave -gridperiod 1
# configure wave -griddelta 40
# configure wave -timeline 0
# configure wave -timelineunits ps
# update
# WaveRestoreZoom {0 ps} {1 ns}
# 
# Set the window types
# view wave
# .main_pane.wave.interior.cs.body.pw.wf
# view structure
# .main_pane.structure.interior.cs.body.struct
# view signals
# .main_pane.objects.interior.cs.body.tree
# 
# Run the simulation
# run -all
# time	D_addr	D_wr	RF_s	RF_W_addr	RF_W_en	RF_Ra_Addr	RF_Rb_Addr	ALU_s0	ALU_inA	ALU_inB	ALU_out
#     0	00	0	1	0	0	0	0	0	xxxx	xxxx	0000
#    20	00	0	1	0	1	0	0	0	xxxx	xxxx	0000
#    40	00	0	1	0	1	0	0	0	abcd	abcd	0000
# ** Error: Incorrect data loaded back from RAM. Expected ffff, got abcd.
#    Time: 45 ps  Scope: Datapath_tb.Load File: ./Datapath.sv Line: 222
#    45	01	0	1	1	0	0	0	0	abcd	abcd	0000
#    60	01	0	1	1	1	1	0	0	xxxx	abcd	0000
#    80	01	0	1	1	1	1	0	0	abcd	abcd	0000
# ** Error: Incorrect data loaded back from RAM. Expected ffff, got abcd.
#    Time: 85 ps  Scope: Datapath_tb.Load File: ./Datapath.sv Line: 222
#    85	02	0	1	2	0	0	0	0	abcd	abcd	0000
#   100	02	0	1	2	1	2	0	0	xxxx	abcd	0000
#   120	02	0	1	2	1	2	0	0	abcd	abcd	0000
# ** Error: Incorrect data loaded back from RAM. Expected ffff, got abcd.
#    Time: 125 ps  Scope: Datapath_tb.Load File: ./Datapath.sv Line: 222
#   125	03	0	1	3	0	0	0	0	abcd	abcd	0000
#   140	03	0	1	3	1	3	0	0	xxxx	abcd	0000
#   160	03	0	1	3	1	3	0	0	abcd	abcd	0000
# ** Error: Incorrect data loaded back from RAM. Expected ffff, got abcd.
#    Time: 165 ps  Scope: Datapath_tb.Load File: ./Datapath.sv Line: 222
#   165	04	0	1	4	0	0	0	0	abcd	abcd	0000
#   180	04	0	1	4	1	4	0	0	xxxx	abcd	0000
#   200	04	0	1	4	1	4	0	0	abcd	abcd	0000
# ** Error: Incorrect data loaded back from RAM. Expected ffff, got abcd.
#    Time: 205 ps  Scope: Datapath_tb.Load File: ./Datapath.sv Line: 222
#   205	05	0	1	5	0	0	0	0	abcd	abcd	0000
#   220	05	0	1	5	1	5	0	0	xxxx	abcd	0000
#   240	05	0	1	5	1	5	0	0	abcd	abcd	0000
# ** Error: Incorrect data loaded back from RAM. Expected ffff, got abcd.
#    Time: 245 ps  Scope: Datapath_tb.Load File: ./Datapath.sv Line: 222
#   245	06	0	1	6	0	0	0	0	abcd	abcd	0000
#   260	06	0	1	6	1	6	0	0	xxxx	abcd	0000
#   280	06	0	1	6	1	6	0	0	abcd	abcd	0000
# ** Error: Incorrect data loaded back from RAM. Expected ffff, got abcd.
#    Time: 285 ps  Scope: Datapath_tb.Load File: ./Datapath.sv Line: 222
#   285	07	0	1	7	0	0	0	0	abcd	abcd	0000
#   300	07	0	1	7	1	7	0	0	xxxx	abcd	0000
#   320	07	0	1	7	1	7	0	0	abcd	abcd	0000
# ** Error: Incorrect data loaded back from RAM. Expected ffff, got abcd.
#    Time: 325 ps  Scope: Datapath_tb.Load File: ./Datapath.sv Line: 222
#   325	08	0	1	8	0	0	0	0	abcd	abcd	0000
#   340	08	0	1	8	1	8	0	0	xxxx	abcd	0000
#   360	08	0	1	8	1	8	0	0	abcd	abcd	0000
# ** Error: Incorrect data loaded back from RAM. Expected ffff, got abcd.
#    Time: 365 ps  Scope: Datapath_tb.Load File: ./Datapath.sv Line: 222
#   365	09	0	1	9	0	0	0	0	abcd	abcd	0000
#   380	09	0	1	9	1	9	0	0	xxxx	abcd	0000
#   400	09	0	1	9	1	9	0	0	abcd	abcd	0000
# ** Error: Incorrect data loaded back from RAM. Expected ffff, got abcd.
#    Time: 405 ps  Scope: Datapath_tb.Load File: ./Datapath.sv Line: 222
#   405	0a	0	1	a	0	0	0	0	abcd	abcd	0000
#   420	0a	0	1	a	1	a	0	0	xxxx	abcd	0000
#   440	0a	0	1	a	1	a	0	0	abcd	abcd	0000
# ** Error: Incorrect data loaded back from RAM. Expected ffff, got abcd.
#    Time: 445 ps  Scope: Datapath_tb.Load File: ./Datapath.sv Line: 222
#   445	0b	0	1	b	0	0	0	0	abcd	abcd	0000
#   460	0b	0	1	b	1	b	0	0	xxxx	abcd	0000
#   480	0b	0	1	b	1	b	0	0	abcd	abcd	0000
# ** Error: Incorrect data loaded back from RAM. Expected ffff, got abcd.
#    Time: 485 ps  Scope: Datapath_tb.Load File: ./Datapath.sv Line: 222
#   485	0c	0	1	c	0	0	0	0	abcd	abcd	0000
#   500	0c	0	1	c	1	c	0	0	xxxx	abcd	0000
#   520	0c	0	1	c	1	c	0	0	abcd	abcd	0000
# ** Error: Incorrect data loaded back from RAM. Expected ffff, got abcd.
#    Time: 525 ps  Scope: Datapath_tb.Load File: ./Datapath.sv Line: 222
#   525	0d	0	1	d	0	0	0	0	abcd	abcd	0000
#   540	0d	0	1	d	1	d	0	0	xxxx	abcd	0000
#   560	0d	0	1	d	1	d	0	0	abcd	abcd	0000
# ** Error: Incorrect data loaded back from RAM. Expected ffff, got abcd.
#    Time: 565 ps  Scope: Datapath_tb.Load File: ./Datapath.sv Line: 222
#   565	0e	0	1	e	0	0	0	0	abcd	abcd	0000
#   580	0e	0	1	e	1	e	0	0	xxxx	abcd	0000
#   600	0e	0	1	e	1	e	0	0	abcd	abcd	0000
# ** Error: Incorrect data loaded back from RAM. Expected ffff, got abcd.
#    Time: 605 ps  Scope: Datapath_tb.Load File: ./Datapath.sv Line: 222
#   605	0f	0	1	f	0	0	0	0	abcd	abcd	0000
#   620	0f	0	1	f	1	f	0	0	xxxx	abcd	0000
#   640	0f	0	1	f	1	f	0	0	abcd	abcd	0000
# ** Error: Incorrect data loaded back from RAM. Expected ffff, got abcd.
#    Time: 645 ps  Scope: Datapath_tb.Load File: ./Datapath.sv Line: 222
#   645	00	1	0	0	0	0	0	0	abcd	abcd	0000
#   660	01	1	0	0	0	1	0	0	abcd	abcd	0000
#   680	02	1	0	0	0	2	0	0	abcd	abcd	0000
#   700	03	1	0	0	0	3	0	0	abcd	abcd	0000
#   720	04	1	0	0	0	4	0	0	abcd	abcd	0000
#   740	05	1	0	0	0	5	0	0	abcd	abcd	0000
#   760	06	1	0	0	0	6	0	0	abcd	abcd	0000
#   780	07	1	0	0	0	7	0	0	abcd	abcd	0000
#   800	08	1	0	0	0	8	0	0	abcd	abcd	0000
#   820	09	1	0	0	0	9	0	0	abcd	abcd	0000
#   840	0a	1	0	0	0	a	0	0	abcd	abcd	0000
#   860	0b	1	0	0	0	b	0	0	abcd	abcd	0000
#   880	0c	1	0	0	0	c	0	0	abcd	abcd	0000
#   900	0d	1	0	0	0	d	0	0	abcd	abcd	0000
#   920	0e	1	0	0	0	e	0	0	abcd	abcd	0000
#   940	0f	1	0	0	0	f	0	0	abcd	abcd	0000
#   960	00	0	0	2	1	0	1	1	abcd	abcd	579a
#   980	00	0	0	2	0	2	1	1	579a	abcd	0367
#   985	00	0	0	3	1	1	2	1	abcd	579a	0367
#  1000	00	0	0	3	0	3	2	1	0367	579a	5b01
#  1005	00	0	0	4	1	2	3	1	579a	0367	5b01
#  1020	00	0	0	4	0	4	3	1	5b01	0367	5e68
#  1025	00	0	0	5	1	3	4	1	0367	5b01	5e68
#  1040	00	0	0	5	0	5	4	1	5e68	5b01	b969
#  1045	00	0	0	6	1	4	5	1	5b01	5e68	b969
#  1060	00	0	0	6	0	6	5	1	b969	5e68	17d1
#  1065	00	0	0	7	1	5	6	1	5e68	b969	17d1
#  1080	00	0	0	7	0	7	6	1	17d1	b969	d13a
#  1085	00	0	0	8	1	6	7	1	b969	17d1	d13a
#  1100	00	0	0	8	0	8	7	1	d13a	17d1	e90b
#  1105	00	0	0	9	1	7	8	1	17d1	d13a	e90b
#  1120	00	0	0	9	0	9	8	1	e90b	d13a	ba45
#  1125	00	0	0	a	1	8	9	1	d13a	e90b	ba45
#  1140	00	0	0	a	0	a	9	1	ba45	e90b	a350
#  1145	00	0	0	b	1	9	a	1	e90b	ba45	a350
#  1160	00	0	0	b	0	b	a	1	a350	ba45	5d95
#  1165	00	0	0	c	1	a	b	1	ba45	a350	5d95
#  1180	00	0	0	c	0	c	b	1	5d95	a350	00e5
#  1185	00	0	0	d	1	b	c	1	a350	5d95	00e5
#  1200	00	0	0	d	0	d	c	1	00e5	5d95	5e7a
#  1205	00	0	0	e	1	c	d	1	5d95	00e5	5e7a
#  1220	00	0	0	e	0	e	d	1	5e7a	00e5	5f5f
#  1225	00	0	0	f	1	d	e	1	00e5	5e7a	5f5f
#  1240	00	0	0	f	0	f	e	1	5f5f	5e7a	bdd9
#  1245	00	0	0	0	1	e	f	1	5e7a	5f5f	bdd9
#  1260	00	0	0	0	0	0	f	1	bdd9	5f5f	1d38
#  1265	00	0	0	1	1	f	0	1	5f5f	bdd9	1d38
#  1280	00	0	0	1	0	1	0	1	1d38	bdd9	db11
#  1285	00	0	0	2	1	0	1	2	bdd9	1d38	a0a1
#  1300	00	0	0	2	0	2	1	2	a0a1	1d38	8369
#  1305	00	0	0	3	1	1	2	2	1d38	a0a1	7c97
#  1320	00	0	0	3	0	3	2	2	7c97	a0a1	dbf6
#  1325	00	0	0	4	1	2	3	2	a0a1	7c97	240a
#  1340	00	0	0	4	0	4	3	2	240a	7c97	a773
#  1345	00	0	0	5	1	3	4	2	7c97	240a	588d
#  1360	00	0	0	5	0	5	4	2	588d	240a	3483
#  1365	00	0	0	6	1	4	5	2	240a	588d	cb7d
#  1380	00	0	0	6	0	6	5	2	cb7d	588d	72f0
#  1385	00	0	0	7	1	5	6	2	588d	cb7d	8d10
#  1400	00	0	0	7	0	7	6	2	8d10	cb7d	c193
#  1405	00	0	0	8	1	6	7	2	cb7d	8d10	3e6d
#  1420	00	0	0	8	0	8	7	2	3e6d	8d10	b15d
#  1425	00	0	0	9	1	7	8	2	8d10	3e6d	4ea3
#  1440	00	0	0	9	0	9	8	2	4ea3	3e6d	1036
#  1445	00	0	0	a	1	8	9	2	3e6d	4ea3	efca
#  1460	00	0	0	a	0	a	9	2	efca	4ea3	a127
#  1465	00	0	0	b	1	9	a	2	4ea3	efca	5ed9
#  1480	00	0	0	b	0	b	a	2	5ed9	efca	6f0f
#  1485	00	0	0	c	1	a	b	2	efca	5ed9	90f1
#  1500	00	0	0	c	0	c	b	2	90f1	5ed9	3218
#  1505	00	0	0	d	1	b	c	2	5ed9	90f1	cde8
#  1520	00	0	0	d	0	d	c	2	cde8	90f1	3cf7
#  1525	00	0	0	e	1	c	d	2	90f1	cde8	c309
#  1540	00	0	0	e	0	e	d	2	c309	cde8	f521
#  1545	00	0	0	f	1	d	e	2	cde8	c309	0adf
#  1560	00	0	0	f	0	f	e	2	0adf	c309	47d6
#  1565	00	0	0	0	1	e	f	2	c309	0adf	b82a
#  1580	00	0	0	0	0	0	f	2	b82a	0adf	ad4b
#  1585	00	0	0	1	1	f	0	2	0adf	b82a	52b5
#  1600	00	0	0	1	0	1	0	2	52b5	b82a	9a8b
# ** Note: $stop    : ./Datapath.sv(286)
#    Time: 1605 ps  Iteration: 0  Instance: /Datapath_tb
# Break in Module Datapath_tb at ./Datapath.sv line 286
# 
# View the entire wave display
# wave zoomfull
# 0 ps
# 1685 ps
# 
# End
do Datapathrtl.do
# 
# Get rid of current work lib
# if {[file exists rtl_work]} {
# 	vdel -lib rtl_work -all
# }
# Error 31: Unable to unlink file "c:/Users/lando/OneDrive/Documents/GitHub/TCES_330_16_bit_processor/PhaseIV/rtl_work/_lib.qdb".
# Error 133: Unable to remove directory "c:/Users/lando/OneDrive/Documents/GitHub/TCES_330_16_bit_processor/PhaseIV/rtl_work".
# 
# Create work library and map it to 'work'
# vlib rtl_work
# vmap work rtl_work
# Model Technology ModelSim - Intel FPGA Edition vmap 2020.1 Lib Mapping Utility 2020.02 Feb 28 2020
# vmap work rtl_work 
# Modifying modelsim.ini
# 
# Compile Verilog
#     All Verilog files that are part of this design should have
#     their own "vlog" line below.
# vlog -work work +acc "./DataMemory.v"
# Model Technology ModelSim - Intel FPGA Edition vlog 2020.1 Compiler 2020.02 Feb 28 2020
# Start time: 12:14:51 on Jun 10,2026
# vlog -reportprogress 300 -work work "+acc" ./DataMemory.v 
# -- Compiling module DataMemory
# 
# Top level modules:
# 	DataMemory
# End time: 12:14:51 on Jun 10,2026, Elapsed time: 0:00:00
# Errors: 0, Warnings: 0
# vlog -work work +acc "./Mux.sv"
# Model Technology ModelSim - Intel FPGA Edition vlog 2020.1 Compiler 2020.02 Feb 28 2020
# Start time: 12:14:51 on Jun 10,2026
# vlog -reportprogress 300 -work work "+acc" ./Mux.sv 
# -- Compiling module Mux
# -- Compiling package Mux_sv_unit
# -- Compiling module Mux_tb
# 
# Top level modules:
# 	Mux_tb
# End time: 12:14:51 on Jun 10,2026, Elapsed time: 0:00:00
# Errors: 0, Warnings: 0
# vlog -work work +acc "./ALU.sv"
# Model Technology ModelSim - Intel FPGA Edition vlog 2020.1 Compiler 2020.02 Feb 28 2020
# Start time: 12:14:51 on Jun 10,2026
# vlog -reportprogress 300 -work work "+acc" ./ALU.sv 
# -- Compiling module ALU
# -- Compiling module ALU_tb
# 
# Top level modules:
# 	ALU_tb
# End time: 12:14:51 on Jun 10,2026, Elapsed time: 0:00:00
# Errors: 0, Warnings: 0
# vlog -work work +acc "./regfile16x16.sv"
# Model Technology ModelSim - Intel FPGA Edition vlog 2020.1 Compiler 2020.02 Feb 28 2020
# Start time: 12:14:52 on Jun 10,2026
# vlog -reportprogress 300 -work work "+acc" ./regfile16x16.sv 
# -- Compiling module regfile16x16
# -- Compiling module regfile16x16_tb
# 
# Top level modules:
# 	regfile16x16_tb
# End time: 12:14:52 on Jun 10,2026, Elapsed time: 0:00:00
# Errors: 0, Warnings: 0
# vlog -work work +acc "./Datapath.sv"
# Model Technology ModelSim - Intel FPGA Edition vlog 2020.1 Compiler 2020.02 Feb 28 2020
# Start time: 12:14:52 on Jun 10,2026
# vlog -reportprogress 300 -work work "+acc" ./Datapath.sv 
# -- Compiling module Datapath
# -- Compiling module Datapath_tb
# 
# Top level modules:
# 	Datapath_tb
# End time: 12:14:52 on Jun 10,2026, Elapsed time: 0:00:00
# Errors: 0, Warnings: 0
# 
# Call vsim to invoke simulator
#     Make sure the last item on the line is the name of the
#     testbench module you want to execute.
# vsim -t 1ps -L altera_ver -L lpm_ver -L sgate_ver -L altera_mf_ver -L altera_lnsim_ver -L cycloneive_ver -L rtl_work -L work -voptargs="+acc" -fsmdebug  Datapath_tb
# End time: 12:14:56 on Jun 10,2026, Elapsed time: 0:00:32
# Errors: 16, Warnings: 0
# vsim -t 1ps -L altera_ver -L lpm_ver -L sgate_ver -L altera_mf_ver -L altera_lnsim_ver -L cycloneive_ver -L rtl_work -L work -voptargs=""+acc"" -fsmdebug Datapath_tb 
# Start time: 12:14:56 on Jun 10,2026
# Loading sv_std.std
# Loading work.Datapath_tb
# Loading work.Datapath
# Loading work.DataMemory
# Loading altera_mf_ver.altsyncram
# Loading work.Mux
# Loading work.ALU
# Loading work.regfile16x16
# Loading altera_mf_ver.altsyncram_body
# Loading altera_mf_ver.ALTERA_DEVICE_FAMILIES
# Loading altera_mf_ver.ALTERA_MF_MEMORY_INITIALIZATION
# WARNING: No extended dataflow license exists
# 
# Source the wave do file
#     This should be the file that sets up the signal window for
#     the module you are testing.
# do DatapathWave.do
# onerror {resume}
# quietly WaveActivateNextPane {} 0
# add wave -noupdate /Datapath_tb/Clk
