PhaseV/transcript
# Reading pref.tcl
do runPC.do
# Model Technology ModelSim - Intel FPGA Edition vlog 2020.1 Compiler 2020.02 Feb 28 2020
# Start time: 14:07:26 on May 28,2026
# vlog -reportprogress 300 ./PC.sv 
# -- Compiling module PC
# -- Compiling module PC_tb
# 
# Top level modules:
# 	PC_tb
# End time: 14:07:26 on May 28,2026, Elapsed time: 0:00:00
# Errors: 0, Warnings: 0
# vsim -voptargs=""+acc"" -t 1ps -lib work PC_tb 
# Start time: 14:07:26 on May 28,2026
# Loading sv_std.std
# Loading work.PC_tb
# Loading work.PC
# WARNING: No extended dataflow license exists
# .main_pane.wave.interior.cs.body.pw.wf
# .main_pane.structure.interior.cs.body.struct
# .main_pane.objects.interior.cs.body.tree
# time	Clk	E	ResetN	Q
#     0	0	0	0	 0
#     5	1	0	0	 0
#    10	0	0	0	 0
#    11	0	1	1	 0
#    15	1	1	1	 1
#    20	0	1	1	 1
#    25	1	1	1	 2
#    30	0	1	1	 2
#    35	1	1	1	 3
#    40	0	1	1	 3
#    45	1	1	1	 4
#    50	0	1	1	 4
#    55	1	1	1	 5
#    60	0	1	1	 5
#    65	1	1	1	 6
#    70	0	1	1	 6
#    75	1	1	1	 7
#    80	0	1	1	 7
#    85	1	1	1	 8
#    90	0	1	1	 8
#    95	1	1	1	 9
#   100	0	1	1	 9
#   105	1	1	1	10
#   110	0	1	1	10
#   115	1	1	1	11
#   120	0	1	1	11
#   125	1	1	1	12
#   130	0	1	1	12
#   135	1	1	1	13
#   140	0	1	1	13
#   145	1	1	1	14
#   150	0	1	1	14
#   155	1	1	1	15
#   160	0	1	1	15
#   165	1	1	1	 0
#   170	0	1	1	 0
#   171	0	0	0	 0
#   175	1	0	0	 0
#   180	0	0	0	 0
#   185	1	0	0	 0
#   190	0	0	0	 0
#   191	0	1	1	 0
#   195	1	1	1	 1
#   200	0	1	1	 1
#   205	1	1	1	 2
#   210	0	1	1	 2
#   215	1	1	1	 3
#   220	0	1	1	 3
#   225	1	1	1	 4
#   230	0	1	1	 4
#   235	1	1	1	 5
#   240	0	1	1	 5
#   245	1	1	1	 6
#   250	0	1	1	 6
#   255	1	1	1	 7
#   260	0	1	1	 7
#   265	1	1	1	 8
#   270	0	1	1	 8
#   271	0	0	1	 8
#   275	1	0	1	 8
#   280	0	0	1	 8
#   285	1	0	1	 8
#   290	0	0	1	 8
#   295	1	0	1	 8
#   300	0	0	1	 8
#   305	1	0	1	 8
#   310	0	0	1	 8
#   315	1	0	1	 8
#   320	0	0	1	 8
#   325	1	0	1	 8
#   330	0	0	1	 8
#   335	1	0	1	 8
#   340	0	0	1	 8
#   345	1	0	1	 8
#   350	0	0	1	 8
#   355	1	0	1	 8
#   360	0	0	1	 8
#   365	1	0	1	 8
#   370	0	0	1	 8
#   371	0	0	0	 0
#   375	1	0	0	 0
#   380	0	0	0	 0
#   385	1	0	0	 0
#   390	0	0	0	 0
#   391	0	1	1	 0
#   395	1	1	1	 1
#   400	0	1	1	 1
#   405	1	1	1	 2
#   410	0	1	1	 2
#   415	1	1	1	 3
#   420	0	1	1	 3
#   425	1	1	1	 4
#   430	0	1	1	 4
#   435	1	1	1	 5
#   440	0	1	1	 5
#   445	1	1	1	 6
#   450	0	1	1	 6
#   455	1	1	1	 7
#   460	0	1	1	 7
#   465	1	1	1	 8
#   470	0	1	1	 8
#   475	1	1	1	 9
#   480	0	1	1	 9
#   485	1	1	1	10
#   490	0	1	1	10
#   495	1	1	1	11
#   500	0	1	1	11
#   505	1	1	1	12
#   510	0	1	1	12
#   515	1	1	1	13
#   520	0	1	1	13
#   525	1	1	1	14
#   530	0	1	1	14
#   535	1	1	1	15
#   540	0	1	1	15
#   541	0	0	1	15
#   545	1	0	1	15
#   550	0	0	1	15
#   555	1	0	1	15
#   560	0	0	1	15
#   565	1	0	1	15
#   570	0	0	1	15
#   575	1	0	1	15
#   580	0	0	1	15
#   585	1	0	1	15
#   590	0	0	1	15
#   595	1	0	1	15
#   600	0	0	1	15
#   605	1	0	1	15
#   610	0	0	1	15
#   615	1	0	1	15
#   620	0	0	1	15
#   625	1	0	1	15
#   630	0	0	1	15
#   635	1	0	1	15
#   640	0	0	1	15
# ** Note: $stop    : ./PC.sv(129)
#    Time: 641 ps  Iteration: 0  Instance: /PC_tb
# Break in Module PC_tb at ./PC.sv line 129
quit -sim
# End time: 14:09:36 on May 28,2026, Elapsed time: 0:02:10
# Errors: 0, Warnings: 0
do runIR.do
# ** Warning: (vlib-34) Library already exists at "work".
# Model Technology ModelSim - Intel FPGA Edition vlog 2020.1 Compiler 2020.02 Feb 28 2020
# Start time: 14:33:11 on May 28,2026
# vlog -reportprogress 300 ./IR.sv 
# -- Compiling module IR
# -- Compiling module IR_tb
# ** Error: ./IR.sv(35): (vlog-2900) The localparam 'Clk' is declared without a default value.
# ** Error: ./IR.sv(35): (vlog-2900) The localparam 'Ld' is declared without a default value.
# ** Error: ./IR.sv(36): (vlog-2900) The localparam 'DataIn' is declared without a default value.
# ** Error: ./IR.sv(36): (vlog-2900) The localparam 'DataOut' is declared without a default value.
# End time: 14:33:11 on May 28,2026, Elapsed time: 0:00:00
# Errors: 4, Warnings: 0
# ** Error: C:/intelFPGA/20.1/modelsim_ase/win32aloem/vlog failed.
# Error in macro ./runIR.do line 7
# C:/intelFPGA/20.1/modelsim_ase/win32aloem/vlog failed.
#     while executing
# "vlog "./IR.sv""
do runIR.do
# ** Warning: (vlib-34) Library already exists at "work".
# Model Technology ModelSim - Intel FPGA Edition vlog 2020.1 Compiler 2020.02 Feb 28 2020
# Start time: 14:33:46 on May 28,2026
# vlog -reportprogress 300 ./IR.sv 
# -- Compiling module IR
# -- Compiling module IR_tb
# 
# Top level modules:
# 	IR_tb
# End time: 14:33:46 on May 28,2026, Elapsed time: 0:00:00
# Errors: 0, Warnings: 0
# vsim -voptargs=""+acc"" -t 1ps -lib work IR_tb 
# Start time: 14:33:46 on May 28,2026
# Loading sv_std.std
# Loading work.IR_tb
# Loading work.IR
# WARNING: No extended dataflow license exists
# ** UI-Msg: (vish-4014) No objects found matching '/IR_tb/Up'.
# Executing ONERROR command at macro ./IRwave.do line 4
# ** UI-Msg: (vish-4014) No objects found matching '/IR_tb/Clr'.
# Executing ONERROR command at macro ./IRwave.do line 5
# ** UI-Msg: (vish-4014) No objects found matching '/IR_tb/Q'.
# Executing ONERROR command at macro ./IRwave.do line 6
# .main_pane.wave.interior.cs.body.pw.wf
# .main_pane.structure.interior.cs.body.struct
# .main_pane.objects.interior.cs.body.tree
# time	Clk	Ld	DataIn	DataOut
#     0	0	1	0000	xxxx
#     5	1	1	0000	0000
#    10	0	1	5231	0000
#    15	1	1	5231	5231
#    20	0	0	5231	5231
#    25	1	0	5231	5231
#    30	0	0	5231	5231
#    35	1	0	5231	5231
#    40	0	0	5231	5231
#    45	1	0	5231	5231
#    50	0	0	5231	5231
#    55	1	0	5231	5231
#    60	0	0	5231	5231
#    65	1	0	5231	5231
# ** Note: $stop    : ./IR.sv(80)
#    Time: 70 ps  Iteration: 1  Instance: /IR_tb
# Break in Module IR_tb at ./IR.sv line 80
do runIR.do
# ** Warning: (vlib-34) Library already exists at "work".
# Model Technology ModelSim - Intel FPGA Edition vlog 2020.1 Compiler 2020.02 Feb 28 2020
# Start time: 14:38:19 on May 28,2026
# vlog -reportprogress 300 ./IR.sv 
# -- Compiling module IR
# -- Compiling module IR_tb
# 
# Top level modules:
# 	IR_tb
# End time: 14:38:19 on May 28,2026, Elapsed time: 0:00:00
# Errors: 0, Warnings: 0
# End time: 14:38:23 on May 28,2026, Elapsed time: 0:04:37
# Errors: 0, Warnings: 0
# vsim -voptargs=""+acc"" -t 1ps -lib work IR_tb 
# Start time: 14:38:24 on May 28,2026
# Loading sv_std.std
# Loading work.IR_tb
# Loading work.IR
# WARNING: No extended dataflow license exists
# ** UI-Msg: (vish-4014) No objects found matching '/IR_tb/Up'.
# Executing ONERROR command at macro ./IRwave.do line 4
# ** UI-Msg: (vish-4014) No objects found matching '/IR_tb/Clr'.
# Executing ONERROR command at macro ./IRwave.do line 5
# ** UI-Msg: (vish-4014) No objects found matching '/IR_tb/Q'.
# Executing ONERROR command at macro ./IRwave.do line 6
# .main_pane.wave.interior.cs.body.pw.wf
# .main_pane.structure.interior.cs.body.struct
# .main_pane.objects.interior.cs.body.tree
# time	Clk	Ld	DataIn	DataOut
#     0	0	1	0000	xxxx
#     5	1	1	0000	0000
#    10	0	1	5231	0000
#    15	1	1	5231	5231
#    20	0	0	5231	5231
#    25	1	0	5231	5231
#    30	0	0	5231	5231
#    35	1	0	5231	5231
#    40	0	0	5231	5231
#    45	1	0	5231	5231
#    50	0	0	5231	5231
#    55	1	0	5231	5231
#    60	0	0	5231	5231
#    65	1	0	5231	5231
#    70	0	1	0000	5231
#    75	1	1	0000	0000
# ** Note: $stop    : ./IR.sv(88)
#    Time: 77 ps  Iteration: 0  Instance: /IR_tb
# Break in Module IR_tb at ./IR.sv line 88
quit
# End time: 14:38:39 on May 28,2026, Elapsed time: 0:00:15
# Errors: 0, Warnings: 0
