PhaseV/transcript
# Reading pref.tcl
do runrtlFSMControl.do
# 
# Get rid of current work lib
# if {[file exists rtl_work]} {
# 	vdel -lib rtl_work -all
# }
# 
# Create work library and map it to 'work'
# vlib rtl_work
# vmap work rtl_work
# Model Technology ModelSim - Intel FPGA Edition vmap 2020.1 Lib Mapping Utility 2020.02 Feb 28 2020
# vmap work rtl_work 
# Modifying modelsim.ini
# 
# Compile Verilog
#     All Verilog files that are part of this design should have
#     their own "vlog" line below.
# vlog -work work +acc +cover "./ControlFSM.sv"
# Model Technology ModelSim - Intel FPGA Edition vlog 2020.1 Compiler 2020.02 Feb 28 2020
# Start time: 18:44:11 on Jun 05,2026
# vlog -reportprogress 300 -work work "+acc" "+cover" ./ControlFSM.sv 
# -- Compiling package ControlFSM_sv_unit
# -- Compiling module ControlFSM
# ** Note: (vlog-143) Recognized 1 FSM in module "ControlFSM(verilog)".
# -- Compiling module ControlFSM_tb
# 
# Top level modules:
# 	ControlFSM_tb
# End time: 18:44:11 on Jun 05,2026, Elapsed time: 0:00:00
# Errors: 0, Warnings: 0
# 
# Call vsim to invoke simulator
#     Make sure the last item on the line is the name of the
#     testbench module you want to execute.
# vsim -t 1ps -L altera_ver -L lpm_ver -L sgate_ver -L altera_mf_ver -L altera_lnsim_ver -L cycloneive_ver -L rtl_work -L work -voptargs="+acc" -fsmdebug  ControlFSM_tb
# vsim -t 1ps -L altera_ver -L lpm_ver -L sgate_ver -L altera_mf_ver -L altera_lnsim_ver -L cycloneive_ver -L rtl_work -L work -voptargs=""+acc"" -fsmdebug ControlFSM_tb 
# Start time: 18:44:11 on Jun 05,2026
# Loading sv_std.std
# Loading work.ControlFSM_sv_unit
# Loading work.ControlFSM_tb
# Loading work.ControlFSM
# WARNING: No extended dataflow license exists
# 
# Source the wave do file
#     This should be the file that sets up the signal window for
#     the module you are testing.
# do controlWave.do
# onerror {resume}
# quietly WaveActivateNextPane {} 0
# add wave -noupdate /ControlFSM_tb/Clk
# ** Warning: (vsim-WLF-5000) WLF file currently in use: vsim.wlf
#           File in use by: lando  Hostname: LANDONSLAPTOP  ProcessID: 29424
#           Attempting to use alternate WLF file "./wlftgn3jb1".
# ** Warning: (vsim-WLF-5001) Could not open WLF file: vsim.wlf
#           Using alternate file: ./wlftgn3jb1
# add wave -noupdate /ControlFSM_tb/ResetN
# add wave -noupdate -hex /ControlFSM_tb/Instruction
# add wave -noupdate /ControlFSM_tb/PC_clr
# add wave -noupdate /ControlFSM_tb/PC_up
# add wave -noupdate /ControlFSM_tb/IR_ld
# add wave -noupdate -hex /ControlFSM_tb/D_addr
# add wave -noupdate /ControlFSM_tb/D_wr
# add wave -noupdate /ControlFSM_tb/RF_s
# add wave -noupdate -hex /ControlFSM_tb/RF_Ra_addr
# add wave -noupdate -hex /ControlFSM_tb/RF_Rb_addr
# add wave -noupdate /ControlFSM_tb/RF_W_en
# add wave -noupdate -hex /ControlFSM_tb/RF_W_Addr
# ** UI-Msg: (vish-4014) No objects found matching '/ControlFSM_tb/RF_W_Addr'.
# Executing ONERROR command at macro ./controlWave.do line 15
# add wave -noupdate -hex /ControlFSM_tb/ALU_s0
# add wave -noupdate -hex /ControlFSM_tb/DUT/currentState
# TreeUpdate [SetDefaultTree]
# WaveRestoreCursors {{Cursor 1} {0 ps} 0}
# quietly wave cursor active 0
# configure wave -namecolwidth 150
# configure wave -valuecolwidth 100
# configure wave -justifyvalue left
# configure wave -signalnamewidth 0
# configure wave -snapdistance 10
# configure wave -datasetprefix 0
# configure wave -rowmargin 4
# configure wave -childrowmargin 2
# configure wave -gridoffset 0
# configure wave -gridperiod 1
# configure wave -griddelta 40
# configure wave -timeline 0
# configure wave -timelineunits ps
# update
# WaveRestoreZoom {0 ps} {1 ns}
# 
# Set the window types
# view wave
# .main_pane.wave.interior.cs.body.pw.wf
# view structure
# .main_pane.structure.interior.cs.body.struct
# view signals
# .main_pane.objects.interior.cs.body.tree
# 
# Run the simulation
# run -all
# Time	Clk	ResetN	Inst	PC_clr	PC_up	IR_ld	D_addr	D_wr	RF_s	RF_Ra_addr	RF_Rb_addr	RF_W_en	RF_W_addr	ALU_s0
#     0	x	0	xxxx	x	x	x	xx	x	x	x	x	x	x	xxx
#    10	0	1	xxxx	0	0	0	00	0	0	0	0	0	0	000
#    20	1	1	xxxx	1	0	0	00	0	0	0	0	0	0	000
#    30	0	1	0000	1	0	0	00	0	0	0	0	0	0	000
#    40	1	1	0000	0	1	1	00	0	0	0	0	0	0	000
#    50	0	1	0000	0	1	1	00	0	0	0	0	0	0	000
#    60	1	1	0000	0	0	0	00	0	0	0	0	0	0	000
#    70	0	0	0000	0	0	0	00	0	0	0	0	0	0	000
#    80	1	0	0000	0	0	0	00	0	0	0	0	0	0	000
#    90	0	1	0000	1	0	0	00	0	0	0	0	0	0	000
#   100	1	1	0000	0	1	1	00	0	0	0	0	0	0	000
#   110	0	1	1ba1	0	1	1	00	0	0	0	0	0	0	000
#   120	1	1	1ba1	0	0	0	00	0	0	0	0	0	0	000
#   130	0	1	1ba1	0	0	0	00	0	0	0	0	0	0	000
#   140	1	1	1ba1	0	0	0	a1	1	0	b	0	0	0	000
#   150	0	1	1ba1	0	0	0	a1	1	0	b	0	0	0	000
#   160	1	1	1ba1	0	1	1	00	0	0	0	0	0	0	000
#   170	0	0	1ba1	0	1	1	00	0	0	0	0	0	0	000
#   180	1	0	1ba1	0	1	1	00	0	0	0	0	0	0	000
#   190	0	1	1ba1	1	0	0	00	0	0	0	0	0	0	000
#   200	1	1	1ba1	0	1	1	00	0	0	0	0	0	0	000
#   210	0	1	2cd3	0	1	1	00	0	0	0	0	0	0	000
#   220	1	1	2cd3	0	0	0	00	0	0	0	0	0	0	000
#   230	0	1	2cd3	0	0	0	00	0	0	0	0	0	0	000
#   240	1	1	2cd3	0	0	0	cd	0	1	0	0	0	3	000
#   250	0	1	2cd3	0	0	0	cd	0	1	0	0	0	3	000
#   260	1	1	2cd3	0	0	0	cd	0	1	0	0	1	3	000
#   270	0	1	2cd3	0	0	0	cd	0	1	0	0	1	3	000
#   280	1	1	2cd3	0	1	1	00	0	0	0	0	0	0	000
#   290	0	0	2cd3	0	1	1	00	0	0	0	0	0	0	000
#   300	1	0	2cd3	0	1	1	00	0	0	0	0	0	0	000
#   310	0	1	2cd3	1	0	0	00	0	0	0	0	0	0	000
#   320	1	1	2cd3	0	1	1	00	0	0	0	0	0	0	000
#   330	0	1	3f13	0	1	1	00	0	0	0	0	0	0	000
#   340	1	1	3f13	0	0	0	00	0	0	0	0	0	0	000
#   350	0	1	3f13	0	0	0	00	0	0	0	0	0	0	000
#   360	1	1	3f13	0	0	0	00	0	0	f	1	1	3	001
#   370	0	1	3f13	0	0	0	00	0	0	f	1	1	3	001
#   380	1	1	3f13	0	1	1	00	0	0	0	0	0	0	000
#   390	0	0	3f13	0	1	1	00	0	0	0	0	0	0	000
#   400	1	0	3f13	0	1	1	00	0	0	0	0	0	0	000
#   410	0	1	3f13	1	0	0	00	0	0	0	0	0	0	000
#   420	1	1	3f13	0	1	1	00	0	0	0	0	0	0	000
#   430	0	1	4e32	0	1	1	00	0	0	0	0	0	0	000
#   440	1	1	4e32	0	0	0	00	0	0	0	0	0	0	000
#   450	0	1	4e32	0	0	0	00	0	0	0	0	0	0	000
#   460	1	1	4e32	0	0	0	00	0	0	e	3	1	2	010
#   470	0	1	4e32	0	0	0	00	0	0	e	3	1	2	010
#   480	1	1	4e32	0	1	1	00	0	0	0	0	0	0	000
#   490	0	1	5eff	0	1	1	00	0	0	0	0	0	0	000
#   500	1	1	5eff	0	0	0	00	0	0	0	0	0	0	000
#   510	0	1	5eff	0	0	0	00	0	0	0	0	0	0	000
#   520	1	1	5eff	0	0	0	00	0	0	0	0	0	0	000
#   530	0	1	5eff	0	0	0	00	0	0	0	0	0	0	000
#   540	1	1	5eff	0	0	0	00	0	0	0	0	0	0	000
#   550	0	1	5eff	0	0	0	00	0	0	0	0	0	0	000
#   560	1	1	5eff	0	0	0	00	0	0	0	0	0	0	000
#   570	0	1	5eff	0	0	0	00	0	0	0	0	0	0	000
#   580	1	1	5eff	0	0	0	00	0	0	0	0	0	0	000
#   590	0	1	5eff	0	0	0	00	0	0	0	0	0	0	000
#   600	1	1	5eff	0	0	0	00	0	0	0	0	0	0	000
#   610	0	1	5eff	0	0	0	00	0	0	0	0	0	0	000
#   620	1	1	5eff	0	0	0	00	0	0	0	0	0	0	000
#   630	0	1	5eff	0	0	0	00	0	0	0	0	0	0	000
#   640	1	1	5eff	0	0	0	00	0	0	0	0	0	0	000
# ** Note: $stop    : ./ControlFSM.sv(387)
#    Time: 650 ps  Iteration: 1  Instance: /ControlFSM_tb
# Break in Module ControlFSM_tb at ./ControlFSM.sv line 387
# 
# View the entire wave display
# wave zoomfull
# 0 ps
# 683 ps
# 
# End
