PhaseIV/transcript
# Reading pref.tcl
do DataMemory_tb.sv
# ** Error: invalid command name "/*"
# Error in macro ./DataMemory_tb.sv line 1
# invalid command name "/*"
#     while executing
# "/*"
do DataMemoryrtl.do
# 
# Get rid of current work lib
# if {[file exists rtl_work]} {
# 	vdel -lib rtl_work -all
# }
# 
# Create work library and map it to 'work'
# vlib rtl_work
# vmap work rtl_work
# Model Technology ModelSim - Intel FPGA Edition vmap 2020.1 Lib Mapping Utility 2020.02 Feb 28 2020
# vmap work rtl_work 
# Modifying modelsim.ini
# 
# Compile Verilog
#     All Verilog files that are part of this design should have
#     their own "vlog" line below.
# vlog -work work +acc "./DataMemory.v"
# Model Technology ModelSim - Intel FPGA Edition vlog 2020.1 Compiler 2020.02 Feb 28 2020
# Start time: 19:02:43 on Jun 02,2026
# vlog -reportprogress 300 -work work "+acc" ./DataMemory.v 
# -- Compiling module DataMemory
# 
# Top level modules:
# 	DataMemory
# End time: 19:02:44 on Jun 02,2026, Elapsed time: 0:00:01
# Errors: 0, Warnings: 0
# vlog -work work +acc "./DataMemory_tb.sv"
# Model Technology ModelSim - Intel FPGA Edition vlog 2020.1 Compiler 2020.02 Feb 28 2020
# Start time: 19:02:44 on Jun 02,2026
# vlog -reportprogress 300 -work work "+acc" ./DataMemory_tb.sv 
# -- Compiling module DataMemory_tb
# 
# Top level modules:
# 	DataMemory_tb
# End time: 19:02:44 on Jun 02,2026, Elapsed time: 0:00:00
# Errors: 0, Warnings: 0
# 
# Call vsim to invoke simulator
#     Make sure the last item on the line is the name of the
#     testbench module you want to execute.
# vsim -t 1ps -L altera_ver -L lpm_ver -L sgate_ver -L altera_mf_ver -L altera_lnsim_ver -L cycloneive_ver -L rtl_work -L work -voptargs="+acc" -fsmdebug  DataMemory_tb
# vsim -t 1ps -L altera_ver -L lpm_ver -L sgate_ver -L altera_mf_ver -L altera_lnsim_ver -L cycloneive_ver -L rtl_work -L work -voptargs=""+acc"" -fsmdebug DataMemory_tb 
# Start time: 19:02:44 on Jun 02,2026
# Loading sv_std.std
# Loading work.DataMemory_tb
# Loading work.DataMemory
# Loading altera_mf_ver.altsyncram
# Loading altera_mf_ver.altsyncram_body
# Loading altera_mf_ver.ALTERA_DEVICE_FAMILIES
# Loading altera_mf_ver.ALTERA_MF_MEMORY_INITIALIZATION
# WARNING: No extended dataflow license exists
# 
# Source the wave do file
#     This should be the file that sets up the signal window for
#     the module you are testing.
# do DataMemoryWave.do
# onerror {resume}
# quietly WaveActivateNextPane {} 0
# add wave -noupdate /DataMemory_tb/clock
# add wave -noupdate -hex /DataMemory_tb/address
# add wave -noupdate -hex /DataMemory_tb/q
# add wave -noupdate -hex /DataMemory_tb/data
# add wave -noupdate /DataMemory_tb/wren
# TreeUpdate [SetDefaultTree]
# WaveRestoreCursors {{Cursor 1} {0 ps} 0}
# quietly wave cursor active 0
# configure wave -namecolwidth 150
# configure wave -valuecolwidth 100
# configure wave -justifyvalue left
# configure wave -signalnamewidth 0
# configure wave -snapdistance 10
# configure wave -datasetprefix 0
# configure wave -rowmargin 4
# configure wave -childrowmargin 2
# configure wave -gridoffset 0
# configure wave -gridperiod 1
# configure wave -griddelta 40
# configure wave -timeline 0
# configure wave -timelineunits ps
# update
# WaveRestoreZoom {0 ps} {1 ns}
# 
# Set the window types
# view wave
# .main_pane.wave.interior.cs.body.pw.wf
# view structure
# .main_pane.structure.interior.cs.body.struct
# view signals
# .main_pane.objects.interior.cs.body.tree
# 
# Run the simulation
# run -all
# time	addr	clk	data	wren	q
#     0	xx	0	xxxx	x	0000
#    10	xx	1	xxxx	x	xxxx
#    20	xx	0	xxxx	x	xxxx
#    30	xx	1	xxxx	x	xxxx
#    40	xx	0	xxxx	x	xxxx
#    50	xx	1	xxxx	x	xxxx
#    60	xx	0	xxxx	x	xxxx
#    70	xx	1	xxxx	x	xxxx
#    80	0a	0	6767	1	xxxx
#    90	0a	1	6767	1	6767
#   100	0a	0	6767	1	6767
#   110	0a	1	6767	1	6767
#   120	0a	0	6767	0	6767
#   130	0a	1	6767	0	6767
#   140	00	0	0000	1	6767
#   150	00	1	0000	1	0000
#   160	01	0	0000	1	0000
#   170	01	1	0000	1	0000
#   180	02	0	0000	1	0000
#   190	02	1	0000	1	0000
#   200	03	0	0000	1	0000
#   210	03	1	0000	1	0000
#   220	04	0	0000	1	0000
#   230	04	1	0000	1	0000
#   240	05	0	0000	1	0000
#   250	05	1	0000	1	0000
#   260	06	0	0000	1	0000
#   270	06	1	0000	1	0000
#   280	07	0	0000	1	0000
#   290	07	1	0000	1	0000
#   300	08	0	0000	1	0000
#   310	08	1	0000	1	0000
#   320	09	0	0000	1	0000
#   330	09	1	0000	1	0000
#   340	0a	0	0000	1	0000
#   350	0a	1	0000	1	0000
#   360	0b	0	0000	1	0000
#   370	0b	1	0000	1	0000
#   380	0c	0	0000	1	0000
#   390	0c	1	0000	1	0000
#   400	0d	0	0000	1	0000
#   410	0d	1	0000	1	0000
#   420	0e	0	0000	1	0000
#   430	0e	1	0000	1	0000
#   440	0f	0	0000	1	0000
#   450	0f	1	0000	1	0000
#   460	10	0	0000	1	0000
#   470	10	1	0000	1	0000
#   480	11	0	0000	1	0000
#   490	11	1	0000	1	0000
#   500	12	0	0000	1	0000
#   510	12	1	0000	1	0000
#   520	13	0	0000	1	0000
#   530	13	1	0000	1	0000
#   540	14	0	0000	1	0000
#   550	14	1	0000	1	0000
#   560	15	0	0000	1	0000
#   570	15	1	0000	1	0000
#   580	16	0	0000	1	0000
#   590	16	1	0000	1	0000
#   600	17	0	0000	1	0000
#   610	17	1	0000	1	0000
#   620	18	0	0000	1	0000
#   630	18	1	0000	1	0000
#   640	19	0	0000	1	0000
#   650	19	1	0000	1	0000
#   660	1a	0	0000	1	0000
#   670	1a	1	0000	1	0000
#   680	1b	0	0000	1	0000
#   690	1b	1	0000	1	0000
#   700	1c	0	0000	1	0000
#   710	1c	1	0000	1	0000
#   720	1d	0	0000	1	0000
#   730	1d	1	0000	1	0000
#   740	1e	0	0000	1	0000
#   750	1e	1	0000	1	0000
#   760	1f	0	0000	1	0000
#   770	1f	1	0000	1	0000
#   780	20	0	0000	1	0000
#   790	20	1	0000	1	0000
#   800	21	0	0000	1	0000
#   810	21	1	0000	1	0000
#   820	22	0	0000	1	0000
#   830	22	1	0000	1	0000
#   840	23	0	0000	1	0000
#   850	23	1	0000	1	0000
#   860	24	0	0000	1	0000
#   870	24	1	0000	1	0000
#   880	25	0	0000	1	0000
#   890	25	1	0000	1	0000
#   900	26	0	0000	1	0000
#   910	26	1	0000	1	0000
#   920	27	0	0000	1	0000
#   930	27	1	0000	1	0000
#   940	28	0	0000	1	0000
#   950	28	1	0000	1	0000
#   960	29	0	0000	1	0000
#   970	29	1	0000	1	0000
#   980	2a	0	0000	1	0000
#   990	2a	1	0000	1	0000
#  1000	2b	0	0000	1	0000
#  1010	2b	1	0000	1	0000
#  1020	2c	0	0000	1	0000
#  1030	2c	1	0000	1	0000
#  1040	2d	0	0000	1	0000
#  1050	2d	1	0000	1	0000
#  1060	2e	0	0000	1	0000
#  1070	2e	1	0000	1	0000
#  1080	2f	0	0000	1	0000
#  1090	2f	1	0000	1	0000
#  1100	30	0	0000	1	0000
#  1110	30	1	0000	1	0000
#  1120	31	0	0000	1	0000
#  1130	31	1	0000	1	0000
#  1140	32	0	0000	1	0000
#  1150	32	1	0000	1	0000
#  1160	33	0	0000	1	0000
#  1170	33	1	0000	1	0000
#  1180	34	0	0000	1	0000
#  1190	34	1	0000	1	0000
#  1200	35	0	0000	1	0000
#  1210	35	1	0000	1	0000
#  1220	36	0	0000	1	0000
#  1230	36	1	0000	1	0000
#  1240	37	0	0000	1	0000
#  1250	37	1	0000	1	0000
#  1260	38	0	0000	1	0000
#  1270	38	1	0000	1	0000
#  1280	39	0	0000	1	0000
#  1290	39	1	0000	1	0000
#  1300	3a	0	0000	1	0000
#  1310	3a	1	0000	1	0000
#  1320	3b	0	0000	1	0000
#  1330	3b	1	0000	1	0000
#  1340	3c	0	0000	1	0000
#  1350	3c	1	0000	1	0000
#  1360	3d	0	0000	1	0000
#  1370	3d	1	0000	1	0000
#  1380	3e	0	0000	1	0000
#  1390	3e	1	0000	1	0000
#  1400	3f	0	0000	1	0000
#  1410	3f	1	0000	1	0000
#  1420	40	0	0000	1	0000
#  1430	40	1	0000	1	0000
#  1440	41	0	0000	1	0000
#  1450	41	1	0000	1	0000
#  1460	42	0	0000	1	0000
#  1470	42	1	0000	1	0000
#  1480	43	0	0000	1	0000
#  1490	43	1	0000	1	0000
#  1500	44	0	0000	1	0000
#  1510	44	1	0000	1	0000
#  1520	45	0	0000	1	0000
#  1530	45	1	0000	1	0000
#  1540	46	0	0000	1	0000
#  1550	46	1	0000	1	0000
#  1560	47	0	0000	1	0000
#  1570	47	1	0000	1	0000
#  1580	48	0	0000	1	0000
#  1590	48	1	0000	1	0000
#  1600	49	0	0000	1	0000
#  1610	49	1	0000	1	0000
#  1620	4a	0	0000	1	0000
#  1630	4a	1	0000	1	0000
#  1640	4b	0	0000	1	0000
#  1650	4b	1	0000	1	0000
#  1660	4c	0	0000	1	0000
#  1670	4c	1	0000	1	0000
#  1680	4d	0	0000	1	0000
#  1690	4d	1	0000	1	0000
#  1700	4e	0	0000	1	0000
#  1710	4e	1	0000	1	0000
#  1720	4f	0	0000	1	0000
#  1730	4f	1	0000	1	0000
#  1740	50	0	0000	1	0000
#  1750	50	1	0000	1	0000
#  1760	51	0	0000	1	0000
#  1770	51	1	0000	1	0000
#  1780	52	0	0000	1	0000
#  1790	52	1	0000	1	0000
#  1800	53	0	0000	1	0000
#  1810	53	1	0000	1	0000
#  1820	54	0	0000	1	0000
#  1830	54	1	0000	1	0000
#  1840	55	0	0000	1	0000
#  1850	55	1	0000	1	0000
#  1860	56	0	0000	1	0000
#  1870	56	1	0000	1	0000
#  1880	57	0	0000	1	0000
#  1890	57	1	0000	1	0000
#  1900	58	0	0000	1	0000
#  1910	58	1	0000	1	0000
#  1920	59	0	0000	1	0000
#  1930	59	1	0000	1	0000
#  1940	5a	0	0000	1	0000
#  1950	5a	1	0000	1	0000
#  1960	5b	0	0000	1	0000
#  1970	5b	1	0000	1	0000
#  1980	5c	0	0000	1	0000
#  1990	5c	1	0000	1	0000
#  2000	5d	0	0000	1	0000
#  2010	5d	1	0000	1	0000
#  2020	5e	0	0000	1	0000
#  2030	5e	1	0000	1	0000
#  2040	5f	0	0000	1	0000
#  2050	5f	1	0000	1	0000
#  2060	60	0	0000	1	0000
#  2070	60	1	0000	1	0000
#  2080	61	0	0000	1	0000
#  2090	61	1	0000	1	0000
#  2100	62	0	0000	1	0000
#  2110	62	1	0000	1	0000
#  2120	63	0	0000	1	0000
#  2130	63	1	0000	1	0000
#  2140	64	0	0000	1	0000
#  2150	64	1	0000	1	0000
#  2160	65	0	0000	1	0000
#  2170	65	1	0000	1	0000
#  2180	66	0	0000	1	0000
#  2190	66	1	0000	1	0000
#  2200	67	0	0000	1	0000
#  2210	67	1	0000	1	0000
#  2220	68	0	0000	1	0000
#  2230	68	1	0000	1	0000
#  2240	69	0	0000	1	0000
#  2250	69	1	0000	1	0000
#  2260	6a	0	0000	1	0000
#  2270	6a	1	0000	1	0000
#  2280	6b	0	0000	1	0000
#  2290	6b	1	0000	1	0000
#  2300	6c	0	0000	1	0000
#  2310	6c	1	0000	1	0000
#  2320	6d	0	0000	1	0000
#  2330	6d	1	0000	1	0000
#  2340	6e	0	0000	1	0000
#  2350	6e	1	0000	1	0000
#  2360	6f	0	0000	1	0000
#  2370	6f	1	0000	1	0000
#  2380	70	0	0000	1	0000
#  2390	70	1	0000	1	0000
#  2400	71	0	0000	1	0000
#  2410	71	1	0000	1	0000
#  2420	72	0	0000	1	0000
#  2430	72	1	0000	1	0000
#  2440	73	0	0000	1	0000
#  2450	73	1	0000	1	0000
#  2460	74	0	0000	1	0000
#  2470	74	1	0000	1	0000
#  2480	75	0	0000	1	0000
#  2490	75	1	0000	1	0000
#  2500	76	0	0000	1	0000
#  2510	76	1	0000	1	0000
#  2520	77	0	0000	1	0000
#  2530	77	1	0000	1	0000
#  2540	78	0	0000	1	0000
#  2550	78	1	0000	1	0000
#  2560	79	0	0000	1	0000
#  2570	79	1	0000	1	0000
#  2580	7a	0	0000	1	0000
#  2590	7a	1	0000	1	0000
#  2600	7b	0	0000	1	0000
#  2610	7b	1	0000	1	0000
#  2620	7c	0	0000	1	0000
#  2630	7c	1	0000	1	0000
#  2640	7d	0	0000	1	0000
#  2650	7d	1	0000	1	0000
#  2660	7e	0	0000	1	0000
#  2670	7e	1	0000	1	0000
#  2680	7f	0	0000	1	0000
#  2690	7f	1	0000	1	0000
#  2700	80	0	0000	1	0000
#  2710	80	1	0000	1	0000
#  2720	81	0	0000	1	0000
#  2730	81	1	0000	1	0000
#  2740	82	0	0000	1	0000
#  2750	82	1	0000	1	0000
#  2760	83	0	0000	1	0000
#  2770	83	1	0000	1	0000
#  2780	84	0	0000	1	0000
#  2790	84	1	0000	1	0000
#  2800	85	0	0000	1	0000
#  2810	85	1	0000	1	0000
#  2820	86	0	0000	1	0000
#  2830	86	1	0000	1	0000
#  2840	87	0	0000	1	0000
#  2850	87	1	0000	1	0000
#  2860	88	0	0000	1	0000
#  2870	88	1	0000	1	0000
#  2880	89	0	0000	1	0000
#  2890	89	1	0000	1	0000
#  2900	8a	0	0000	1	0000
#  2910	8a	1	0000	1	0000
#  2920	8b	0	0000	1	0000
#  2930	8b	1	0000	1	0000
#  2940	8c	0	0000	1	0000
#  2950	8c	1	0000	1	0000
#  2960	8d	0	0000	1	0000
#  2970	8d	1	0000	1	0000
#  2980	8e	0	0000	1	0000
#  2990	8e	1	0000	1	0000
#  3000	8f	0	0000	1	0000
#  3010	8f	1	0000	1	0000
#  3020	90	0	0000	1	0000
#  3030	90	1	0000	1	0000
#  3040	91	0	0000	1	0000
#  3050	91	1	0000	1	0000
#  3060	92	0	0000	1	0000
#  3070	92	1	0000	1	0000
#  3080	93	0	0000	1	0000
#  3090	93	1	0000	1	0000
#  3100	94	0	0000	1	0000
#  3110	94	1	0000	1	0000
#  3120	95	0	0000	1	0000
#  3130	95	1	0000	1	0000
#  3140	96	0	0000	1	0000
#  3150	96	1	0000	1	0000
#  3160	97	0	0000	1	0000
#  3170	97	1	0000	1	0000
#  3180	98	0	0000	1	0000
#  3190	98	1	0000	1	0000
#  3200	99	0	0000	1	0000
#  3210	99	1	0000	1	0000
#  3220	9a	0	0000	1	0000
#  3230	9a	1	0000	1	0000
#  3240	9b	0	0000	1	0000
#  3250	9b	1	0000	1	0000
#  3260	9c	0	0000	1	0000
#  3270	9c	1	0000	1	0000
#  3280	9d	0	0000	1	0000
#  3290	9d	1	0000	1	0000
#  3300	9e	0	0000	1	0000
#  3310	9e	1	0000	1	0000
#  3320	9f	0	0000	1	0000
#  3330	9f	1	0000	1	0000
#  3340	a0	0	0000	1	0000
#  3350	a0	1	0000	1	0000
#  3360	a1	0	0000	1	0000
#  3370	a1	1	0000	1	0000
#  3380	a2	0	0000	1	0000
#  3390	a2	1	0000	1	0000
#  3400	a3	0	0000	1	0000
#  3410	a3	1	0000	1	0000
#  3420	a4	0	0000	1	0000
#  3430	a4	1	0000	1	0000
#  3440	a5	0	0000	1	0000
#  3450	a5	1	0000	1	0000
#  3460	a6	0	0000	1	0000
#  3470	a6	1	0000	1	0000
#  3480	a7	0	0000	1	0000
#  3490	a7	1	0000	1	0000
#  3500	a8	0	0000	1	0000
#  3510	a8	1	0000	1	0000
#  3520	a9	0	0000	1	0000
#  3530	a9	1	0000	1	0000
#  3540	aa	0	0000	1	0000
#  3550	aa	1	0000	1	0000
#  3560	ab	0	0000	1	0000
#  3570	ab	1	0000	1	0000
#  3580	ac	0	0000	1	0000
#  3590	ac	1	0000	1	0000
#  3600	ad	0	0000	1	0000
#  3610	ad	1	0000	1	0000
#  3620	ae	0	0000	1	0000
#  3630	ae	1	0000	1	0000
#  3640	af	0	0000	1	0000
#  3650	af	1	0000	1	0000
#  3660	b0	0	0000	1	0000
#  3670	b0	1	0000	1	0000
#  3680	b1	0	0000	1	0000
#  3690	b1	1	0000	1	0000
#  3700	b2	0	0000	1	0000
#  3710	b2	1	0000	1	0000
#  3720	b3	0	0000	1	0000
#  3730	b3	1	0000	1	0000
#  3740	b4	0	0000	1	0000
#  3750	b4	1	0000	1	0000
#  3760	b5	0	0000	1	0000
#  3770	b5	1	0000	1	0000
#  3780	b6	0	0000	1	0000
#  3790	b6	1	0000	1	0000
#  3800	b7	0	0000	1	0000
#  3810	b7	1	0000	1	0000
#  3820	b8	0	0000	1	0000
#  3830	b8	1	0000	1	0000
#  3840	b9	0	0000	1	0000
#  3850	b9	1	0000	1	0000
#  3860	ba	0	0000	1	0000
#  3870	ba	1	0000	1	0000
#  3880	bb	0	0000	1	0000
#  3890	bb	1	0000	1	0000
#  3900	bc	0	0000	1	0000
#  3910	bc	1	0000	1	0000
#  3920	bd	0	0000	1	0000
#  3930	bd	1	0000	1	0000
#  3940	be	0	0000	1	0000
#  3950	be	1	0000	1	0000
#  3960	bf	0	0000	1	0000
#  3970	bf	1	0000	1	0000
#  3980	c0	0	0000	1	0000
#  3990	c0	1	0000	1	0000
#  4000	c1	0	0000	1	0000
#  4010	c1	1	0000	1	0000
#  4020	c2	0	0000	1	0000
#  4030	c2	1	0000	1	0000
#  4040	c3	0	0000	1	0000
#  4050	c3	1	0000	1	0000
#  4060	c4	0	0000	1	0000
#  4070	c4	1	0000	1	0000
#  4080	c5	0	0000	1	0000
#  4090	c5	1	0000	1	0000
#  4100	c6	0	0000	1	0000
#  4110	c6	1	0000	1	0000
#  4120	c7	0	0000	1	0000
#  4130	c7	1	0000	1	0000
#  4140	c8	0	0000	1	0000
#  4150	c8	1	0000	1	0000
#  4160	c9	0	0000	1	0000
#  4170	c9	1	0000	1	0000
#  4180	ca	0	0000	1	0000
#  4190	ca	1	0000	1	0000
#  4200	cb	0	0000	1	0000
#  4210	cb	1	0000	1	0000
#  4220	cc	0	0000	1	0000
#  4230	cc	1	0000	1	0000
#  4240	cd	0	0000	1	0000
#  4250	cd	1	0000	1	0000
#  4260	ce	0	0000	1	0000
#  4270	ce	1	0000	1	0000
#  4280	cf	0	0000	1	0000
#  4290	cf	1	0000	1	0000
#  4300	d0	0	0000	1	0000
#  4310	d0	1	0000	1	0000
#  4320	d1	0	0000	1	0000
#  4330	d1	1	0000	1	0000
#  4340	d2	0	0000	1	0000
#  4350	d2	1	0000	1	0000
#  4360	d3	0	0000	1	0000
#  4370	d3	1	0000	1	0000
#  4380	d4	0	0000	1	0000
#  4390	d4	1	0000	1	0000
#  4400	d5	0	0000	1	0000
#  4410	d5	1	0000	1	0000
#  4420	d6	0	0000	1	0000
#  4430	d6	1	0000	1	0000
#  4440	d7	0	0000	1	0000
#  4450	d7	1	0000	1	0000
#  4460	d8	0	0000	1	0000
#  4470	d8	1	0000	1	0000
#  4480	d9	0	0000	1	0000
#  4490	d9	1	0000	1	0000
#  4500	da	0	0000	1	0000
#  4510	da	1	0000	1	0000
#  4520	db	0	0000	1	0000
#  4530	db	1	0000	1	0000
#  4540	dc	0	0000	1	0000
#  4550	dc	1	0000	1	0000
#  4560	dd	0	0000	1	0000
#  4570	dd	1	0000	1	0000
#  4580	de	0	0000	1	0000
#  4590	de	1	0000	1	0000
#  4600	df	0	0000	1	0000
#  4610	df	1	0000	1	0000
#  4620	e0	0	0000	1	0000
#  4630	e0	1	0000	1	0000
#  4640	e1	0	0000	1	0000
#  4650	e1	1	0000	1	0000
#  4660	e2	0	0000	1	0000
#  4670	e2	1	0000	1	0000
#  4680	e3	0	0000	1	0000
#  4690	e3	1	0000	1	0000
#  4700	e4	0	0000	1	0000
#  4710	e4	1	0000	1	0000
#  4720	e5	0	0000	1	0000
#  4730	e5	1	0000	1	0000
#  4740	e6	0	0000	1	0000
#  4750	e6	1	0000	1	0000
#  4760	e7	0	0000	1	0000
#  4770	e7	1	0000	1	0000
#  4780	e8	0	0000	1	0000
#  4790	e8	1	0000	1	0000
#  4800	e9	0	0000	1	0000
#  4810	e9	1	0000	1	0000
#  4820	ea	0	0000	1	0000
#  4830	ea	1	0000	1	0000
#  4840	eb	0	0000	1	0000
#  4850	eb	1	0000	1	0000
#  4860	ec	0	0000	1	0000
#  4870	ec	1	0000	1	0000
#  4880	ed	0	0000	1	0000
#  4890	ed	1	0000	1	0000
#  4900	ee	0	0000	1	0000
#  4910	ee	1	0000	1	0000
#  4920	ef	0	0000	1	0000
#  4930	ef	1	0000	1	0000
#  4940	f0	0	0000	1	0000
#  4950	f0	1	0000	1	0000
#  4960	f1	0	0000	1	0000
#  4970	f1	1	0000	1	0000
#  4980	f2	0	0000	1	0000
#  4990	f2	1	0000	1	0000
#  5000	f3	0	0000	1	0000
#  5010	f3	1	0000	1	0000
#  5020	f4	0	0000	1	0000
#  5030	f4	1	0000	1	0000
#  5040	f5	0	0000	1	0000
#  5050	f5	1	0000	1	0000
#  5060	f6	0	0000	1	0000
#  5070	f6	1	0000	1	0000
#  5080	f7	0	0000	1	0000
#  5090	f7	1	0000	1	0000
#  5100	f8	0	0000	1	0000
#  5110	f8	1	0000	1	0000
#  5120	f9	0	0000	1	0000
#  5130	f9	1	0000	1	0000
#  5140	fa	0	0000	1	0000
#  5150	fa	1	0000	1	0000
#  5160	fb	0	0000	1	0000
#  5170	fb	1	0000	1	0000
#  5180	fc	0	0000	1	0000
#  5190	fc	1	0000	1	0000
#  5200	fd	0	0000	1	0000
#  5210	fd	1	0000	1	0000
#  5220	fe	0	0000	1	0000
#  5230	fe	1	0000	1	0000
#  5240	ff	0	0000	1	0000
#  5250	ff	1	0000	1	0000
#  5260	ff	0	0000	1	0000
#  5270	ff	1	0000	1	0000
#  5280	00	0	3524	1	0000
#  5290	00	1	3524	1	3524
#  5300	01	0	5e81	1	3524
#  5310	01	1	5e81	1	5e81
#  5320	02	0	d609	1	5e81
#  5330	02	1	d609	1	d609
#  5340	03	0	5663	1	d609
#  5350	03	1	5663	1	5663
#  5360	04	0	7b0d	1	5663
#  5370	04	1	7b0d	1	7b0d
#  5380	05	0	998d	1	7b0d
#  5390	05	1	998d	1	998d
#  5400	06	0	8465	1	998d
#  5410	06	1	8465	1	8465
#  5420	07	0	5212	1	8465
#  5430	07	1	5212	1	5212
#  5440	08	0	e301	1	5212
#  5450	08	1	e301	1	e301
#  5460	09	0	cd0d	1	e301
#  5470	09	1	cd0d	1	cd0d
#  5480	0a	0	f176	1	cd0d
#  5490	0a	1	f176	1	f176
#  5500	0b	0	cd3d	1	f176
#  5510	0b	1	cd3d	1	cd3d
#  5520	0c	0	57ed	1	cd3d
#  5530	0c	1	57ed	1	57ed
#  5540	0d	0	f78c	1	57ed
#  5550	0d	1	f78c	1	f78c
#  5560	0e	0	e9f9	1	f78c
#  5570	0e	1	e9f9	1	e9f9
#  5580	0f	0	24c6	1	e9f9
#  5590	0f	1	24c6	1	24c6
#  5600	10	0	84c5	1	24c6
#  5610	10	1	84c5	1	84c5
#  5620	11	0	d2aa	1	84c5
#  5630	11	1	d2aa	1	d2aa
#  5640	12	0	f7e5	1	d2aa
#  5650	12	1	f7e5	1	f7e5
#  5660	13	0	7277	1	f7e5
#  5670	13	1	7277	1	7277
#  5680	14	0	d612	1	7277
#  5690	14	1	d612	1	d612
#  5700	15	0	db8f	1	d612
#  5710	15	1	db8f	1	db8f
#  5720	16	0	69f2	1	db8f
#  5730	16	1	69f2	1	69f2
#  5740	17	0	96ce	1	69f2
#  5750	17	1	96ce	1	96ce
#  5760	18	0	7ae8	1	96ce
#  5770	18	1	7ae8	1	7ae8
#  5780	19	0	4ec5	1	7ae8
#  5790	19	1	4ec5	1	4ec5
#  5800	1a	0	495c	1	4ec5
#  5810	1a	1	495c	1	495c
#  5820	1b	0	28bd	1	495c
#  5830	1b	1	28bd	1	28bd
#  5840	1c	0	582d	1	28bd
#  5850	1c	1	582d	1	582d
#  5860	1d	0	2665	1	582d
#  5870	1d	1	2665	1	2665
#  5880	1e	0	6263	1	2665
#  5890	1e	1	6263	1	6263
#  5900	1f	0	870a	1	6263
#  5910	1f	1	870a	1	870a
#  5920	20	0	2280	1	870a
#  5930	20	1	2280	1	2280
#  5940	21	0	2120	1	2280
#  5950	21	1	2120	1	2120
#  5960	22	0	45aa	1	2120
#  5970	22	1	45aa	1	45aa
#  5980	23	0	cc9d	1	45aa
#  5990	23	1	cc9d	1	cc9d
#  6000	24	0	3e96	1	cc9d
#  6010	24	1	3e96	1	3e96
#  6020	25	0	b813	1	3e96
#  6030	25	1	b813	1	b813
#  6040	26	0	380d	1	b813
#  6050	26	1	380d	1	380d
#  6060	27	0	d653	1	380d
#  6070	27	1	d653	1	d653
#  6080	28	0	dd6b	1	d653
#  6090	28	1	dd6b	1	dd6b
#  6100	29	0	2ad5	1	dd6b
#  6110	29	1	2ad5	1	2ad5
#  6120	2a	0	4a02	1	2ad5
#  6130	2a	1	4a02	1	4a02
#  6140	2b	0	3eae	1	4a02
#  6150	2b	1	3eae	1	3eae
#  6160	2c	0	e91d	1	3eae
#  6170	2c	1	e91d	1	e91d
#  6180	2d	0	72cf	1	e91d
#  6190	2d	1	72cf	1	72cf
#  6200	2e	0	4923	1	72cf
#  6210	2e	1	4923	1	4923
#  6220	2f	0	650a	1	4923
#  6230	2f	1	650a	1	650a
#  6240	30	0	0aca	1	650a
#  6250	30	1	0aca	1	0aca
#  6260	31	0	4c3c	1	0aca
#  6270	31	1	4c3c	1	4c3c
#  6280	32	0	bdf2	1	4c3c
#  6290	32	1	bdf2	1	bdf2
#  6300	33	0	618a	1	bdf2
#  6310	33	1	618a	1	618a
#  6320	34	0	b341	1	618a
#  6330	34	1	b341	1	b341
#  6340	35	0	34d8	1	b341
#  6350	35	1	34d8	1	34d8
#  6360	36	0	f378	1	34d8
#  6370	36	1	f378	1	f378
#  6380	37	0	1289	1	f378
#  6390	37	1	1289	1	1289
#  6400	38	0	0deb	1	1289
#  6410	38	1	0deb	1	0deb
#  6420	39	0	65b6	1	0deb
#  6430	39	1	65b6	1	65b6
#  6440	3a	0	f9c6	1	65b6
#  6450	3a	1	f9c6	1	f9c6
#  6460	3b	0	13ae	1	f9c6
#  6470	3b	1	13ae	1	13ae
#  6480	3c	0	02bc	1	13ae
#  6490	3c	1	02bc	1	02bc
#  6500	3d	0	dd2a	1	02bc
#  6510	3d	1	dd2a	1	dd2a
#  6520	3e	0	9a0b	1	dd2a
#  6530	3e	1	9a0b	1	9a0b
#  6540	3f	0	be71	1	9a0b
#  6550	3f	1	be71	1	be71
#  6560	40	0	4185	1	be71
#  6570	40	1	4185	1	4185
#  6580	41	0	554f	1	4185
#  6590	41	1	554f	1	554f
#  6600	42	0	603b	1	554f
#  6610	42	1	603b	1	603b
#  6620	43	0	333a	1	603b
#  6630	43	1	333a	1	333a
#  6640	44	0	327e	1	333a
#  6650	44	1	327e	1	327e
#  6660	45	0	4b15	1	327e
#  6670	45	1	4b15	1	4b15
#  6680	46	0	9bf1	1	4b15
#  6690	46	1	9bf1	1	9bf1
#  6700	47	0	4bd9	1	9bf1
#  6710	47	1	4bd9	1	4bd9
#  6720	48	0	0762	1	4bd9
#  6730	48	1	0762	1	0762
#  6740	49	0	fb4c	1	0762
#  6750	49	1	fb4c	1	fb4c
#  6760	4a	0	559f	1	fb4c
#  6770	4a	1	559f	1	559f
#  6780	4b	0	a18f	1	559f
#  6790	4b	1	a18f	1	a18f
#  6800	4c	0	a9f8	1	a18f
#  6810	4c	1	a9f8	1	a9f8
#  6820	4d	0	60b7	1	a9f8
#  6830	4d	1	60b7	1	60b7
#  6840	4e	0	569f	1	60b7
#  6850	4e	1	569f	1	569f
#  6860	4f	0	945c	1	569f
#  6870	4f	1	945c	1	945c
#  6880	50	0	c05b	1	945c
#  6890	50	1	c05b	1	c05b
#  6900	51	0	3789	1	c05b
#  6910	51	1	3789	1	3789
#  6920	52	0	3249	1	3789
#  6930	52	1	3249	1	3249
#  6940	53	0	3ed0	1	3249
#  6950	53	1	3ed0	1	3ed0
#  6960	54	0	c0d7	1	3ed0
#  6970	54	1	c0d7	1	c0d7
#  6980	55	0	fc51	1	c0d7
#  6990	55	1	fc51	1	fc51
#  7000	56	0	2f96	1	fc51
#  7010	56	1	2f96	1	2f96
#  7020	57	0	7f0c	1	2f96
#  7030	57	1	7f0c	1	7f0c
#  7040	58	0	cec2	1	7f0c
#  7050	58	1	cec2	1	cec2
#  7060	59	0	edc8	1	cec2
#  7070	59	1	edc8	1	edc8
#  7080	5a	0	5a77	1	edc8
#  7090	5a	1	5a77	1	5a77
#  7100	5b	0	ed3d	1	5a77
#  7110	5b	1	ed3d	1	ed3d
#  7120	5c	0	db12	1	ed3d
#  7130	5c	1	db12	1	db12
#  7140	5d	0	007e	1	db12
#  7150	5d	1	007e	1	007e
#  7160	5e	0	816d	1	007e
#  7170	5e	1	816d	1	816d
#  7180	5f	0	e739	1	816d
#  7190	5f	1	e739	1	e739
#  7200	60	0	8f1f	1	e739
#  7210	60	1	8f1f	1	8f1f
#  7220	61	0	f6d3	1	8f1f
#  7230	61	1	f6d3	1	f6d3
#  7240	62	0	2f85	1	f6d3
#  7250	62	1	2f85	1	2f85
#  7260	63	0	8878	1	2f85
#  7270	63	1	8878	1	8878
#  7280	64	0	595b	1	8878
#  7290	64	1	595b	1	595b
#  7300	65	0	4b49	1	595b
#  7310	65	1	4b49	1	4b49
#  7320	66	0	ae3f	1	4b49
#  7330	66	1	ae3f	1	ae3f
#  7340	67	0	af2a	1	ae3f
#  7350	67	1	af2a	1	af2a
#  7360	68	0	6358	1	af2a
