PhaseIV/transcript
# Reading pref.tcl
do DataMemoryrtl.do
# 
# Get rid of current work lib
# if {[file exists rtl_work]} {
# 	vdel -lib rtl_work -all
# }
# 
# Create work library and map it to 'work'
# vlib rtl_work
# vmap work rtl_work
# Model Technology ModelSim - Intel FPGA Edition vmap 2020.1 Lib Mapping Utility 2020.02 Feb 28 2020
# vmap work rtl_work 
# Modifying modelsim.ini
# 
# Compile Verilog
#     All Verilog files that are part of this design should have
#     their own "vlog" line below.
# vlog -work work +acc "./DataMemory.v"
# Model Technology ModelSim - Intel FPGA Edition vlog 2020.1 Compiler 2020.02 Feb 28 2020
# Start time: 10:36:06 on Jun 02,2026
# vlog -reportprogress 300 -work work "+acc" ./DataMemory.v 
# -- Compiling module DataMemory
# 
# Top level modules:
# 	DataMemory
# End time: 10:36:07 on Jun 02,2026, Elapsed time: 0:00:01
# Errors: 0, Warnings: 0
# vlog -work work +acc "./DataMemory_tb.sv"
# Model Technology ModelSim - Intel FPGA Edition vlog 2020.1 Compiler 2020.02 Feb 28 2020
# Start time: 10:36:07 on Jun 02,2026
# vlog -reportprogress 300 -work work "+acc" ./DataMemory_tb.sv 
# -- Compiling module DataMemory_tb
# 
# Top level modules:
# 	DataMemory_tb
# End time: 10:36:07 on Jun 02,2026, Elapsed time: 0:00:00
# Errors: 0, Warnings: 0
# 
# Call vsim to invoke simulator
#     Make sure the last item on the line is the name of the
#     testbench module you want to execute.
# vsim -t 1ps -L altera_ver -L lpm_ver -L sgate_ver -L altera_mf_ver -L altera_lnsim_ver -L cycloneive_ver -L rtl_work -L work -voptargs="+acc" -fsmdebug  DataMemory_tb
# vsim -t 1ps -L altera_ver -L lpm_ver -L sgate_ver -L altera_mf_ver -L altera_lnsim_ver -L cycloneive_ver -L rtl_work -L work -voptargs=""+acc"" -fsmdebug DataMemory_tb 
# Start time: 10:36:07 on Jun 02,2026
# Loading sv_std.std
# Loading work.DataMemory_tb
# Loading work.DataMemory
# Loading altera_mf_ver.altsyncram
# Loading altera_mf_ver.altsyncram_body
# Loading altera_mf_ver.ALTERA_DEVICE_FAMILIES
# Loading altera_mf_ver.ALTERA_MF_MEMORY_INITIALIZATION
# WARNING: No extended dataflow license exists
# 
# Source the wave do file
#     This should be the file that sets up the signal window for
#     the module you are testing.
# do DataMemoryWave.do
# onerror {resume}
# quietly WaveActivateNextPane {} 0
# add wave -noupdate /DataMemory_tb/clock
# add wave -noupdate -hex /DataMemory_tb/address
# add wave -noupdate -hex /DataMemory_tb/q
# add wave -noupdate -hex /DataMemory_tb/data
# add wave -noupdate /DataMemory_tb/wren
# TreeUpdate [SetDefaultTree]
# WaveRestoreCursors {{Cursor 1} {0 ps} 0}
# quietly wave cursor active 0
# configure wave -namecolwidth 150
# configure wave -valuecolwidth 100
# configure wave -justifyvalue left
# configure wave -signalnamewidth 0
# configure wave -snapdistance 10
# configure wave -datasetprefix 0
# configure wave -rowmargin 4
# configure wave -childrowmargin 2
# configure wave -gridoffset 0
# configure wave -gridperiod 1
# configure wave -griddelta 40
# configure wave -timeline 0
# configure wave -timelineunits ps
# update
# WaveRestoreZoom {0 ps} {1 ns}
# 
# Set the window types
# view wave
# .main_pane.wave.interior.cs.body.pw.wf
# view structure
# .main_pane.structure.interior.cs.body.struct
# view signals
# .main_pane.objects.interior.cs.body.tree
# 
# Run the simulation
# run -all
# time	addr	clk	data	wren	q
#     0	xx	0	xxxx	x	0000
#    10	xx	1	xxxx	x	xxxx
#    20	xx	0	xxxx	x	xxxx
#    30	xx	1	xxxx	x	xxxx
#    40	xx	0	xxxx	x	xxxx
#    50	xx	1	xxxx	x	xxxx
#    60	xx	0	xxxx	x	xxxx
#    70	xx	1	xxxx	x	xxxx
#    80	0a	0	6767	1	xxxx
#    90	0a	1	6767	1	6767
#   100	0a	0	6767	1	6767
#   110	0a	1	6767	1	6767
#   120	0a	0	6767	0	6767
#   130	0a	1	6767	0	6767
#   140	00	0	0000	1	6767
#   150	00	1	0000	1	0000
#   160	01	0	0000	1	0000
#   170	01	1	0000	1	0000
#   180	02	0	0000	1	0000
#   190	02	1	0000	1	0000
#   200	03	0	0000	1	0000
#   210	03	1	0000	1	0000
#   220	04	0	0000	1	0000
#   230	04	1	0000	1	0000
#   240	05	0	0000	1	0000
#   250	05	1	0000	1	0000
#   260	06	0	0000	1	0000
#   270	06	1	0000	1	0000
#   280	07	0	0000	1	0000
#   290	07	1	0000	1	0000
#   300	08	0	0000	1	0000
#   310	08	1	0000	1	0000
#   320	09	0	0000	1	0000
#   330	09	1	0000	1	0000
#   340	0a	0	0000	1	0000
#   350	0a	1	0000	1	0000
#   360	0b	0	0000	1	0000
#   370	0b	1	0000	1	0000
#   380	0c	0	0000	1	0000
#   390	0c	1	0000	1	0000
#   400	0d	0	0000	1	0000
#   410	0d	1	0000	1	0000
#   420	0e	0	0000	1	0000
#   430	0e	1	0000	1	0000
#   440	0f	0	0000	1	0000
#   450	0f	1	0000	1	0000
#   460	0f	0	0000	1	0000
#   470	0f	1	0000	1	0000
#   480	00	0	3524	1	0000
#   490	00	1	3524	1	3524
#   500	01	0	5e81	1	3524
#   510	01	1	5e81	1	5e81
#   520	02	0	d609	1	5e81
#   530	02	1	d609	1	d609
#   540	03	0	5663	1	d609
#   550	03	1	5663	1	5663
#   560	04	0	7b0d	1	5663
#   570	04	1	7b0d	1	7b0d
#   580	05	0	998d	1	7b0d
#   590	05	1	998d	1	998d
#   600	06	0	8465	1	998d
#   610	06	1	8465	1	8465
#   620	07	0	5212	1	8465
#   630	07	1	5212	1	5212
#   640	08	0	e301	1	5212
#   650	08	1	e301	1	e301
#   660	09	0	cd0d	1	e301
#   670	09	1	cd0d	1	cd0d
#   680	0a	0	f176	1	cd0d
#   690	0a	1	f176	1	f176
#   700	0b	0	cd3d	1	f176
#   710	0b	1	cd3d	1	cd3d
#   720	0c	0	57ed	1	cd3d
#   730	0c	1	57ed	1	57ed
#   740	0d	0	f78c	1	57ed
#   750	0d	1	f78c	1	f78c
#   760	0e	0	e9f9	1	f78c
#   770	0e	1	e9f9	1	e9f9
#   780	0f	0	24c6	1	e9f9
#   790	0f	1	24c6	1	24c6
#   800	0f	0	24c6	1	24c6
#   810	0f	1	24c6	1	24c6
#   820	00	0	24c6	0	24c6
#   830	00	1	24c6	0	3524
#   840	00	0	24c6	0	3524
#   850	00	1	24c6	0	3524
#   860	00	0	24c6	0	3524
#   870	00	1	24c6	0	3524
#   880	00	0	24c6	0	3524
#   890	00	1	24c6	0	3524
#   900	01	0	24c6	0	3524
#   910	01	1	24c6	0	5e81
#   920	01	0	24c6	0	5e81
#   930	01	1	24c6	0	5e81
#   940	01	0	24c6	0	5e81
#   950	01	1	24c6	0	5e81
#   960	01	0	24c6	0	5e81
#   970	01	1	24c6	0	5e81
#   980	02	0	24c6	0	5e81
#   990	02	1	24c6	0	d609
#  1000	02	0	24c6	0	d609
#  1010	02	1	24c6	0	d609
#  1020	02	0	24c6	0	d609
#  1030	02	1	24c6	0	d609
#  1040	02	0	24c6	0	d609
#  1050	02	1	24c6	0	d609
#  1060	03	0	24c6	0	d609
#  1070	03	1	24c6	0	5663
#  1080	03	0	24c6	0	5663
#  1090	03	1	24c6	0	5663
#  1100	03	0	24c6	0	5663
#  1110	03	1	24c6	0	5663
#  1120	03	0	24c6	0	5663
#  1130	03	1	24c6	0	5663
#  1140	04	0	24c6	0	5663
#  1150	04	1	24c6	0	7b0d
#  1160	04	0	24c6	0	7b0d
#  1170	04	1	24c6	0	7b0d
#  1180	04	0	24c6	0	7b0d
#  1190	04	1	24c6	0	7b0d
#  1200	04	0	24c6	0	7b0d
#  1210	04	1	24c6	0	7b0d
#  1220	05	0	24c6	0	7b0d
#  1230	05	1	24c6	0	998d
#  1240	05	0	24c6	0	998d
#  1250	05	1	24c6	0	998d
#  1260	05	0	24c6	0	998d
#  1270	05	1	24c6	0	998d
#  1280	05	0	24c6	0	998d
#  1290	05	1	24c6	0	998d
#  1300	06	0	24c6	0	998d
#  1310	06	1	24c6	0	8465
#  1320	06	0	24c6	0	8465
#  1330	06	1	24c6	0	8465
#  1340	06	0	24c6	0	8465
#  1350	06	1	24c6	0	8465
#  1360	06	0	24c6	0	8465
#  1370	06	1	24c6	0	8465
#  1380	07	0	24c6	0	8465
#  1390	07	1	24c6	0	5212
#  1400	07	0	24c6	0	5212
#  1410	07	1	24c6	0	5212
#  1420	07	0	24c6	0	5212
#  1430	07	1	24c6	0	5212
#  1440	07	0	24c6	0	5212
#  1450	07	1	24c6	0	5212
#  1460	08	0	24c6	0	5212
#  1470	08	1	24c6	0	e301
#  1480	08	0	24c6	0	e301
#  1490	08	1	24c6	0	e301
#  1500	08	0	24c6	0	e301
#  1510	08	1	24c6	0	e301
#  1520	08	0	24c6	0	e301
#  1530	08	1	24c6	0	e301
#  1540	09	0	24c6	0	e301
#  1550	09	1	24c6	0	cd0d
#  1560	09	0	24c6	0	cd0d
#  1570	09	1	24c6	0	cd0d
#  1580	09	0	24c6	0	cd0d
#  1590	09	1	24c6	0	cd0d
#  1600	09	0	24c6	0	cd0d
#  1610	09	1	24c6	0	cd0d
#  1620	0a	0	24c6	0	cd0d
#  1630	0a	1	24c6	0	f176
#  1640	0a	0	24c6	0	f176
#  1650	0a	1	24c6	0	f176
#  1660	0a	0	24c6	0	f176
#  1670	0a	1	24c6	0	f176
#  1680	0a	0	24c6	0	f176
#  1690	0a	1	24c6	0	f176
#  1700	0b	0	24c6	0	f176
#  1710	0b	1	24c6	0	cd3d
#  1720	0b	0	24c6	0	cd3d
#  1730	0b	1	24c6	0	cd3d
#  1740	0b	0	24c6	0	cd3d
#  1750	0b	1	24c6	0	cd3d
#  1760	0b	0	24c6	0	cd3d
#  1770	0b	1	24c6	0	cd3d
#  1780	0c	0	24c6	0	cd3d
#  1790	0c	1	24c6	0	57ed
#  1800	0c	0	24c6	0	57ed
#  1810	0c	1	24c6	0	57ed
#  1820	0c	0	24c6	0	57ed
#  1830	0c	1	24c6	0	57ed
#  1840	0c	0	24c6	0	57ed
#  1850	0c	1	24c6	0	57ed
#  1860	0d	0	24c6	0	57ed
#  1870	0d	1	24c6	0	f78c
#  1880	0d	0	24c6	0	f78c
#  1890	0d	1	24c6	0	f78c
#  1900	0d	0	24c6	0	f78c
#  1910	0d	1	24c6	0	f78c
#  1920	0d	0	24c6	0	f78c
#  1930	0d	1	24c6	0	f78c
#  1940	0e	0	24c6	0	f78c
#  1950	0e	1	24c6	0	e9f9
#  1960	0e	0	24c6	0	e9f9
#  1970	0e	1	24c6	0	e9f9
#  1980	0e	0	24c6	0	e9f9
#  1990	0e	1	24c6	0	e9f9
#  2000	0e	0	24c6	0	e9f9
#  2010	0e	1	24c6	0	e9f9
#  2020	0f	0	24c6	0	e9f9
#  2030	0f	1	24c6	0	24c6
#  2040	0f	0	24c6	0	24c6
#  2050	0f	1	24c6	0	24c6
#  2060	0f	0	24c6	0	24c6
#  2070	0f	1	24c6	0	24c6
#  2080	0f	0	24c6	0	24c6
#  2090	0f	1	24c6	0	24c6
# ** Note: $stop    : ./DataMemory_tb.sv(111)
#    Time: 2100 ps  Iteration: 1  Instance: /DataMemory_tb
# Break in Module DataMemory_tb at ./DataMemory_tb.sv line 111
# 
# View the entire wave display
# wave zoomfull
# 0 ps
# 2205 ps
# 
# End
quit
# End time: 10:36:18 on Jun 02,2026, Elapsed time: 0:00:11
# Errors: 0, Warnings: 0
